10.05.2017 04:51;9
10.05.2017 04:53;11
10.05.2017 04:55;12
10.05.2017 04:57;11
10.05.2017 04:58;11
10.05.2017 05:00;12
10.05.2017 05:02;12
10.05.2017 05:03;12
10.05.2017 05:05;12
10.05.2017 05:07;12
10.05.2017 05:09;12
10.05.2017 05:11;14
10.05.2017 05:12;15
10.05.2017 05:14;14
10.05.2017 05:16;15
10.05.2017 05:18;15
10.05.2017 05:19;15
10.05.2017 05:21;14
10.05.2017 05:22;14
10.05.2017 05:24;15
10.05.2017 05:26;14
10.05.2017 05:27;14
10.05.2017 05:29;13
10.05.2017 05:31;13
10.05.2017 05:32;12
10.05.2017 05:34;12
10.05.2017 05:36;14
10.05.2017 05:38;14
10.05.2017 05:39;14
10.05.2017 05:41;14
10.05.2017 05:42;14
10.05.2017 05:44;14
10.05.2017 05:46;14
10.05.2017 05:47;16
10.05.2017 05:49;16
10.05.2017 05:51;15
10.05.2017 05:52;15
10.05.2017 05:54;15
10.05.2017 05:56;15
10.05.2017 05:57;16
10.05.2017 05:59;17
10.05.2017 06:01;17
10.05.2017 06:02;17
10.05.2017 06:04;17
10.05.2017 06:06;16
10.05.2017 06:07;16
10.05.2017 06:09;16
10.05.2017 06:11;15
10.05.2017 06:12;15
10.05.2017 06:14;15
10.05.2017 06:16;15
10.05.2017 06:17;14
10.05.2017 06:19;15
10.05.2017 06:21;15
10.05.2017 06:22;15
10.05.2017 06:24;15
10.05.2017 06:26;15
10.05.2017 06:27;16
10.05.2017 06:29;16
10.05.2017 06:39;7
10.05.2017 06:42;10
10.05.2017 06:44;13
10.05.2017 06:46;13
10.05.2017 06:47;15
10.05.2017 06:49;16
10.05.2017 06:51;14
10.05.2017 06:53;15
10.05.2017 06:54;16
10.05.2017 06:56;16
10.05.2017 06:58;16
10.05.2017 06:59;14
10.05.2017 07:01;15
10.05.2017 07:03;15
10.05.2017 07:05;14
10.05.2017 07:06;14
10.05.2017 07:08;15
10.05.2017 07:10;14
10.05.2017 07:12;14
10.05.2017 07:13;14
10.05.2017 07:15;14
10.05.2017 07:17;15
10.05.2017 07:18;15
10.05.2017 07:20;16
10.05.2017 07:22;16
10.05.2017 07:24;16
10.05.2017 07:25;15
10.05.2017 07:27;15
10.05.2017 07:29;15
10.05.2017 07:30;15
10.05.2017 07:32;14
10.05.2017 07:34;14
10.05.2017 07:36;15
10.05.2017 07:37;15
10.05.2017 07:39;16
10.05.2017 07:41;16
10.05.2017 07:42;16
10.05.2017 07:44;16
10.05.2017 07:46;16
10.05.2017 07:47;16
10.05.2017 07:49;16
10.05.2017 07:51;14
10.05.2017 07:52;14
10.05.2017 07:54;14
10.05.2017 07:56;15
10.05.2017 07:58;15
10.05.2017 08:00;16
10.05.2017 08:01;16
10.05.2017 08:03;16
10.05.2017 08:04;15
10.05.2017 08:06;16
10.05.2017 08:08;16
10.05.2017 08:10;15
10.05.2017 08:12;15
10.05.2017 08:13;15
10.05.2017 08:15;15
10.05.2017 08:17;15
10.05.2017 08:18;14
10.05.2017 08:20;15
10.05.2017 08:22;14
10.05.2017 08:24;13
10.05.2017 08:25;13
10.05.2017 08:27;13
10.05.2017 08:29;14
10.05.2017 08:30;13
10.05.2017 08:32;12
10.05.2017 08:34;12
10.05.2017 08:35;12
10.05.2017 08:37;12
10.05.2017 08:39;11
10.05.2017 08:40;11
10.05.2017 08:42;11
10.05.2017 08:44;12
10.05.2017 08:46;12
10.05.2017 08:48;13
10.05.2017 08:49;12
10.05.2017 08:51;12
10.05.2017 08:53;12
10.05.2017 08:54;12
10.05.2017 08:56;12
10.05.2017 08:58;12
10.05.2017 08:59;12
10.05.2017 09:01;12
10.05.2017 09:03;11
10.05.2017 09:05;12
10.05.2017 09:07;10
10.05.2017 09:09;11
10.05.2017 09:10;11
10.05.2017 09:12;11
10.05.2017 09:14;11
10.05.2017 09:15;11
10.05.2017 09:17;11
10.05.2017 09:19;11
10.05.2017 09:20;11
10.05.2017 09:22;10
10.05.2017 09:24;10
10.05.2017 09:25;9
10.05.2017 09:27;9
10.05.2017 09:29;11
10.05.2017 09:31;11
10.05.2017 09:32;11
10.05.2017 09:34;11
10.05.2017 09:36;11
10.05.2017 09:38;11
10.05.2017 09:39;12
10.05.2017 09:41;12
10.05.2017 09:43;11
10.05.2017 09:45;12
10.05.2017 09:47;12
10.05.2017 09:48;12
10.05.2017 09:50;12
10.05.2017 09:52;10
10.05.2017 09:54;11
10.05.2017 09:55;11
10.05.2017 09:57;12
10.05.2017 09:59;12
10.05.2017 10:00;12
10.05.2017 10:02;13
10.05.2017 10:04;13
10.05.2017 10:06;12
10.05.2017 10:08;11
10.05.2017 10:09;12
10.05.2017 10:11;12
10.05.2017 10:13;12
10.05.2017 10:14;12
10.05.2017 10:16;12
10.05.2017 10:18;11
10.05.2017 11:00;8
10.05.2017 11:02;9
10.05.2017 11:04;9
10.05.2017 11:06;11
10.05.2017 11:07;11
10.05.2017 11:09;11
10.05.2017 11:11;11
10.05.2017 11:13;12
10.05.2017 11:14;12
10.05.2017 11:16;11
10.05.2017 11:18;10
10.05.2017 11:19;11
10.05.2017 11:21;11
10.05.2017 11:23;11
10.05.2017 11:24;11
10.05.2017 11:26;10
10.05.2017 11:28;10
10.05.2017 11:30;10
10.05.2017 11:31;10
10.05.2017 11:33;10
10.05.2017 11:35;9
10.05.2017 11:36;8
10.05.2017 11:38;8
10.05.2017 11:40;8
10.05.2017 11:42;8
10.05.2017 11:43;9
10.05.2017 11:45;10
10.05.2017 11:47;10
10.05.2017 11:49;10
10.05.2017 11:50;10
10.05.2017 11:52;10
10.05.2017 11:54;10
10.05.2017 11:56;9
10.05.2017 11:58;9
10.05.2017 11:59;10
10.05.2017 12:01;9
10.05.2017 12:03;9
10.05.2017 12:05;9
10.05.2017 12:06;10
10.05.2017 12:08;11
10.05.2017 12:10;10
10.05.2017 12:12;8
10.05.2017 12:13;8
10.05.2017 12:15;10
10.05.2017 12:17;10
10.05.2017 12:19;9
10.05.2017 12:20;8
10.05.2017 12:23;11
10.05.2017 12:25;12
10.05.2017 12:26;13
10.05.2017 12:28;11
10.05.2017 12:30;12
10.05.2017 12:32;11
10.05.2017 12:33;11
10.05.2017 12:35;11
10.05.2017 12:37;10
10.05.2017 12:39;9
10.05.2017 12:41;8
10.05.2017 12:43;8
10.05.2017 12:45;8
10.05.2017 13:43;10
10.05.2017 13:45;9
10.05.2017 13:47;11
10.05.2017 13:49;11
10.05.2017 13:50;11
10.05.2017 13:52;11
10.05.2017 13:54;10
10.05.2017 13:56;12
10.05.2017 13:57;11
10.05.2017 13:59;12
10.05.2017 14:01;12
10.05.2017 14:02;12
10.05.2017 14:04;12
10.05.2017 14:06;13
10.05.2017 14:07;12
10.05.2017 14:09;12
10.05.2017 14:11;12
10.05.2017 14:13;11
10.05.2017 14:14;12
10.05.2017 14:16;12
10.05.2017 14:18;11
10.05.2017 14:20;12
10.05.2017 14:21;12
10.05.2017 14:23;13
10.05.2017 14:25;11
10.05.2017 14:27;13
10.05.2017 14:28;13
10.05.2017 14:30;12
10.05.2017 14:32;13
10.05.2017 14:33;13
10.05.2017 14:35;13
10.05.2017 14:37;13
10.05.2017 14:38;13
10.05.2017 14:40;14
10.05.2017 14:42;13
10.05.2017 14:43;13
10.05.2017 14:45;13
10.05.2017 14:47;13
10.05.2017 14:48;13
10.05.2017 14:50;14
10.05.2017 14:52;12
10.05.2017 14:53;12
10.05.2017 14:55;12
10.05.2017 14:57;12
10.05.2017 14:58;12
10.05.2017 15:00;12
10.05.2017 15:02;12
10.05.2017 15:03;12
10.05.2017 15:05;12
10.05.2017 15:07;12
10.05.2017 15:08;12
10.05.2017 15:10;12
10.05.2017 15:11;12
10.05.2017 15:13;12
10.05.2017 15:15;12
10.05.2017 15:16;12
10.05.2017 15:18;12
10.05.2017 15:20;12
10.05.2017 15:22;12
10.05.2017 15:23;12
10.05.2017 15:25;11
10.05.2017 15:27;11
10.05.2017 15:28;11
10.05.2017 15:30;11
10.05.2017 15:32;11
10.05.2017 15:34;12
10.05.2017 15:36;13
10.05.2017 15:38;13
10.05.2017 15:39;12
10.05.2017 15:41;11
10.05.2017 15:43;11
10.05.2017 15:45;12
10.05.2017 15:46;13
10.05.2017 15:48;12
10.05.2017 15:50;13
10.05.2017 15:52;12
10.05.2017 15:53;12
10.05.2017 15:55;11
10.05.2017 15:57;12
10.05.2017 15:59;13
10.05.2017 16:00;10
10.05.2017 16:02;10
10.05.2017 16:04;10
10.05.2017 16:06;11
10.05.2017 16:07;10
10.05.2017 16:09;10
10.05.2017 16:11;11
10.05.2017 16:13;11
10.05.2017 16:14;11
10.05.2017 16:16;11
10.05.2017 16:18;10
10.05.2017 16:19;10
10.05.2017 16:21;9
10.05.2017 16:23;9
10.05.2017 16:25;10
10.05.2017 16:27;10
10.05.2017 16:28;9
10.05.2017 16:30;9
10.05.2017 16:32;9
10.05.2017 16:34;10
10.05.2017 16:36;10
10.05.2017 16:37;10
10.05.2017 16:39;10
10.05.2017 16:41;9
10.05.2017 16:42;8
10.05.2017 16:44;7
10.05.2017 16:46;7
10.05.2017 16:48;8
10.05.2017 16:49;8
10.05.2017 16:51;7
10.05.2017 16:53;7
10.05.2017 16:54;8
10.05.2017 16:56;8
10.05.2017 16:58;7
10.05.2017 17:00;7
10.05.2017 17:01;7
10.05.2017 17:03;8
10.05.2017 17:05;8
10.05.2017 17:07;7
10.05.2017 17:08;8
10.05.2017 17:10;8
10.05.2017 17:12;9
10.05.2017 17:14;9
10.05.2017 17:16;10
10.05.2017 17:17;10
10.05.2017 17:19;9
10.05.2017 17:21;8
10.05.2017 17:22;9
10.05.2017 17:24;10
10.05.2017 17:26;10
10.05.2017 17:28;11
10.05.2017 17:30;11
10.05.2017 17:32;13
10.05.2017 17:33;14
10.05.2017 17:35;14
10.05.2017 17:37;14
10.05.2017 17:39;14
10.05.2017 17:40;13
10.05.2017 17:42;14
10.05.2017 17:44;16
10.05.2017 17:46;15
10.05.2017 17:48;14
10.05.2017 17:50;15
10.05.2017 17:52;15
10.05.2017 17:54;15
10.05.2017 17:56;15
10.05.2017 17:58;17
10.05.2017 18:00;16
10.05.2017 18:02;17
10.05.2017 18:04;18
10.05.2017 18:06;18
10.05.2017 18:08;18
10.05.2017 18:10;18
10.05.2017 18:12;17
10.05.2017 18:13;16
10.05.2017 18:15;16
10.05.2017 18:17;16
10.05.2017 18:19;17
10.05.2017 18:21;17
10.05.2017 18:23;17
10.05.2017 18:24;16
10.05.2017 18:26;14
10.05.2017 18:28;15
10.05.2017 18:30;17
10.05.2017 18:32;17
10.05.2017 18:34;17
10.05.2017 18:36;17
10.05.2017 18:38;18
10.05.2017 18:39;16
10.05.2017 18:41;16
10.05.2017 18:43;16
10.05.2017 18:45;15
10.05.2017 18:47;15
10.05.2017 18:49;15
10.05.2017 18:51;15
10.05.2017 18:53;15
10.05.2017 18:55;15
10.05.2017 18:57;16
10.05.2017 18:59;16
10.05.2017 19:01;17
10.05.2017 19:03;17
10.05.2017 19:05;17
10.05.2017 19:06;17
10.05.2017 19:08;16
10.05.2017 19:10;16
10.05.2017 19:12;17
10.05.2017 19:14;16
10.05.2017 19:16;14
10.05.2017 19:18;14
10.05.2017 19:20;15
10.05.2017 19:22;16
10.05.2017 19:24;14
10.05.2017 19:25;14
10.05.2017 19:28;15
10.05.2017 19:29;16
10.05.2017 19:31;14
10.05.2017 20:32;12
10.05.2017 20:34;11
10.05.2017 20:37;13
10.05.2017 20:39;15
10.05.2017 20:41;17
10.05.2017 20:43;15
10.05.2017 20:45;13
10.05.2017 20:47;15
10.05.2017 20:49;16
10.05.2017 20:51;15
10.05.2017 20:52;15
10.05.2017 20:54;16
10.05.2017 20:56;16
10.05.2017 20:58;15
10.05.2017 21:00;15
10.05.2017 21:02;15
10.05.2017 21:04;16
10.05.2017 21:06;17
10.05.2017 21:08;17
10.05.2017 21:10;17
10.05.2017 21:12;17
10.05.2017 21:14;16
10.05.2017 21:16;18
10.05.2017 21:18;18
10.05.2017 21:19;18
10.05.2017 21:21;18
10.05.2017 21:23;18
10.05.2017 21:25;18
10.05.2017 21:27;17
10.05.2017 21:29;17
10.05.2017 21:33;13
10.05.2017 21:36;14
10.05.2017 21:38;14
10.05.2017 21:40;14
10.05.2017 21:43;10
10.05.2017 21:45;10
11.05.2017 00:00;11
11.05.2017 00:02;10
11.05.2017 00:05;12
11.05.2017 00:07;12
11.05.2017 00:09;12
11.05.2017 00:11;14
11.05.2017 00:13;14
11.05.2017 00:14;14
11.05.2017 00:16;14
11.05.2017 00:18;15
11.05.2017 00:21;15
11.05.2017 00:22;13
11.05.2017 00:24;14
11.05.2017 00:26;14
11.05.2017 00:28;14
11.05.2017 00:30;14
11.05.2017 00:32;14
11.05.2017 00:34;14
11.05.2017 00:36;16
11.05.2017 00:38;15
11.05.2017 00:40;17
11.05.2017 00:41;17
11.05.2017 00:43;17
11.05.2017 00:45;17
11.05.2017 00:47;17
11.05.2017 00:48;17
11.05.2017 00:50;17
11.05.2017 00:52;17
11.05.2017 00:53;17
11.05.2017 00:55;16
11.05.2017 00:57;16
11.05.2017 00:59;15
11.05.2017 01:01;15
11.05.2017 01:02;16
11.05.2017 01:04;17
11.05.2017 01:06;17
11.05.2017 01:08;17
11.05.2017 01:10;17
11.05.2017 01:11;16
11.05.2017 01:13;16
11.05.2017 01:15;15
11.05.2017 01:17;15
11.05.2017 01:19;14
11.05.2017 01:20;14
11.05.2017 01:22;15
11.05.2017 01:24;15
11.05.2017 01:26;15
11.05.2017 01:28;16
11.05.2017 01:30;16
11.05.2017 01:31;17
11.05.2017 01:33;16
11.05.2017 01:35;16
11.05.2017 01:37;16
11.05.2017 01:39;16
11.05.2017 01:40;16
11.05.2017 01:42;15
11.05.2017 01:44;16
11.05.2017 01:46;16
11.05.2017 01:48;16
11.05.2017 01:50;17
11.05.2017 01:51;16
11.05.2017 01:53;18
11.05.2017 01:55;18
11.05.2017 01:57;18
11.05.2017 01:58;18
11.05.2017 02:00;17
11.05.2017 02:02;16
11.05.2017 02:04;16
11.05.2017 02:06;17
11.05.2017 02:08;17
11.05.2017 02:10;16
11.05.2017 02:12;16
11.05.2017 02:13;16
11.05.2017 02:15;16
11.05.2017 02:17;16
11.05.2017 02:19;16
11.05.2017 02:21;16
11.05.2017 02:22;16
11.05.2017 02:24;15
11.05.2017 02:26;15
11.05.2017 02:28;15
11.05.2017 04:28;19
11.05.2017 04:30;12
11.05.2017 04:32;11
11.05.2017 04:34;12
11.05.2017 04:36;12
11.05.2017 04:38;12
11.05.2017 04:40;12
11.05.2017 04:42;12
11.05.2017 04:43;12
11.05.2017 04:45;12
11.05.2017 04:47;13
11.05.2017 04:49;12
11.05.2017 04:51;12
11.05.2017 04:53;12
11.05.2017 04:55;12
11.05.2017 04:57;14
11.05.2017 04:58;15
11.05.2017 05:00;16
11.05.2017 05:02;15
11.05.2017 05:04;15
11.05.2017 05:05;16
11.05.2017 05:07;16
11.05.2017 05:09;16
11.05.2017 05:11;18
11.05.2017 05:13;18
11.05.2017 05:14;18
11.05.2017 05:16;18
11.05.2017 05:18;16
11.05.2017 05:20;17
11.05.2017 05:22;16
11.05.2017 05:24;15
11.05.2017 05:26;16
11.05.2017 05:27;16
11.05.2017 05:29;16
11.05.2017 05:31;17
11.05.2017 05:33;17
11.05.2017 05:35;16
11.05.2017 05:36;16
11.05.2017 05:38;16
11.05.2017 05:40;16
11.05.2017 05:42;16
11.05.2017 05:44;17
11.05.2017 05:46;18
11.05.2017 05:48;18
11.05.2017 05:49;17
11.05.2017 05:51;16
11.05.2017 05:53;15
11.05.2017 05:55;17
11.05.2017 05:57;17
11.05.2017 05:59;16
11.05.2017 06:00;16
11.05.2017 06:02;16
11.05.2017 06:04;16
11.05.2017 06:06;18
11.05.2017 06:08;17
11.05.2017 06:09;16
11.05.2017 06:11;15
11.05.2017 06:13;15
11.05.2017 06:15;16
11.05.2017 06:17;16
11.05.2017 06:18;15
11.05.2017 06:20;14
11.05.2017 06:22;15
11.05.2017 06:24;15
11.05.2017 06:26;17
11.05.2017 06:28;17
11.05.2017 06:29;17
11.05.2017 06:31;17
11.05.2017 06:33;17
11.05.2017 06:34;17
11.05.2017 06:36;17
11.05.2017 06:38;17
11.05.2017 06:39;17
11.05.2017 06:41;17
11.05.2017 06:43;16
11.05.2017 06:45;17
11.05.2017 06:46;16
11.05.2017 06:48;15
11.05.2017 06:50;16
11.05.2017 06:52;15
11.05.2017 06:54;16
11.05.2017 06:56;17
11.05.2017 06:58;18
11.05.2017 07:00;18
11.05.2017 07:01;18
11.05.2017 07:03;18
11.05.2017 07:05;18
11.05.2017 07:07;17
11.05.2017 07:09;18
11.05.2017 07:10;17
11.05.2017 07:12;17
11.05.2017 07:14;16
11.05.2017 07:16;17
11.05.2017 07:17;17
11.05.2017 07:19;17
11.05.2017 07:21;18
11.05.2017 07:23;16
11.05.2017 07:25;16
11.05.2017 07:26;16
11.05.2017 07:28;16
11.05.2017 07:30;16
11.05.2017 07:32;12
11.05.2017 07:33;15
11.05.2017 07:35;16
11.05.2017 07:37;14
11.05.2017 07:39;14
11.05.2017 07:41;14
11.05.2017 07:42;14
11.05.2017 07:44;14
11.05.2017 07:46;15
11.05.2017 07:48;15
11.05.2017 07:50;14
11.05.2017 07:51;14
11.05.2017 07:53;14
11.05.2017 07:55;14
11.05.2017 07:57;14
11.05.2017 07:58;14
11.05.2017 08:00;14
11.05.2017 08:02;15
11.05.2017 08:04;15
11.05.2017 08:05;14
11.05.2017 08:07;14
11.05.2017 08:09;13
11.05.2017 08:11;13
11.05.2017 08:13;14
11.05.2017 08:14;14
11.05.2017 08:16;14
11.05.2017 08:18;13
11.05.2017 08:20;15
11.05.2017 08:22;16
11.05.2017 08:23;16
11.05.2017 08:25;16
11.05.2017 08:27;16
11.05.2017 08:29;15
11.05.2017 08:30;15
11.05.2017 08:32;15
11.05.2017 08:34;15
11.05.2017 08:36;15
11.05.2017 08:37;14
11.05.2017 08:39;14
11.05.2017 08:41;13
11.05.2017 08:43;12
11.05.2017 08:44;13
11.05.2017 08:47;14
11.05.2017 08:48;14
11.05.2017 08:50;14
11.05.2017 08:52;14
11.05.2017 08:54;15
11.05.2017 08:56;15
11.05.2017 08:57;14
11.05.2017 08:59;13
11.05.2017 09:01;14
11.05.2017 09:03;14
11.05.2017 09:05;14
11.05.2017 09:07;14
11.05.2017 09:09;12
11.05.2017 09:11;14
11.05.2017 09:12;15
11.05.2017 09:14;15
11.05.2017 09:16;15
11.05.2017 09:18;15
11.05.2017 09:20;14
11.05.2017 09:21;14
11.05.2017 09:23;14
11.05.2017 09:25;14
11.05.2017 09:27;14
11.05.2017 09:29;14
11.05.2017 09:30;14
11.05.2017 09:32;15
11.05.2017 09:34;14
11.05.2017 09:36;13
11.05.2017 09:38;14
11.05.2017 09:40;14
11.05.2017 09:42;14
11.05.2017 09:44;14
11.05.2017 09:45;13
11.05.2017 09:48;11
11.05.2017 09:49;12
11.05.2017 09:51;12
11.05.2017 09:53;12
11.05.2017 09:55;14
11.05.2017 09:57;13
11.05.2017 09:59;13
11.05.2017 10:01;14
11.05.2017 10:03;14
11.05.2017 10:05;12
11.05.2017 10:06;12
11.05.2017 10:08;12
11.05.2017 10:10;13
11.05.2017 10:12;13
11.05.2017 10:14;13
11.05.2017 10:15;13
11.05.2017 10:17;12
11.05.2017 10:19;11
11.05.2017 10:21;11
11.05.2017 10:23;12
11.05.2017 10:24;12
11.05.2017 10:26;12
11.05.2017 10:28;13
11.05.2017 10:30;13
11.05.2017 10:32;14
11.05.2017 10:33;14
11.05.2017 10:35;13
11.05.2017 10:37;14
11.05.2017 10:39;14
11.05.2017 10:41;13
11.05.2017 10:43;14
11.05.2017 10:44;14
11.05.2017 10:46;14
11.05.2017 10:48;15
11.05.2017 10:50;15
11.05.2017 10:52;16
11.05.2017 10:53;15
11.05.2017 10:55;15
11.05.2017 10:57;15
11.05.2017 10:58;15
11.05.2017 11:00;15
11.05.2017 11:02;16
11.05.2017 11:04;16
11.05.2017 11:06;16
11.05.2017 11:07;16
11.05.2017 11:09;17
11.05.2017 11:11;14
11.05.2017 11:13;14
11.05.2017 11:15;14
11.05.2017 11:17;14
11.05.2017 11:18;15
11.05.2017 11:20;15
11.05.2017 11:22;14
11.05.2017 11:24;14
11.05.2017 11:26;15
11.05.2017 11:27;15
11.05.2017 11:29;15
11.05.2017 11:31;15
11.05.2017 11:33;15
11.05.2017 11:35;14
11.05.2017 11:36;11
11.05.2017 11:38;10
11.05.2017 11:40;11
11.05.2017 11:42;10
11.05.2017 11:44;11
11.05.2017 11:46;12
11.05.2017 11:48;13
11.05.2017 11:50;12
11.05.2017 11:52;12
11.05.2017 11:54;13
11.05.2017 11:55;13
11.05.2017 11:57;13
11.05.2017 11:59;14
11.05.2017 12:01;14
11.05.2017 12:03;13
11.05.2017 12:05;14
11.05.2017 12:07;14
11.05.2017 12:08;13
11.05.2017 12:10;11
11.05.2017 12:12;10
11.05.2017 12:14;12
11.05.2017 12:16;12
11.05.2017 12:17;12
11.05.2017 12:19;12
11.05.2017 12:21;12
11.05.2017 12:23;13
11.05.2017 12:25;13
11.05.2017 12:27;14
11.05.2017 12:28;13
11.05.2017 12:30;13
11.05.2017 12:32;12
11.05.2017 12:35;13
11.05.2017 12:36;13
11.05.2017 12:38;14
11.05.2017 12:40;15
11.05.2017 12:42;15
11.05.2017 12:43;14
11.05.2017 12:45;14
11.05.2017 13:10;10
11.05.2017 13:12;13
11.05.2017 13:14;14
11.05.2017 13:16;13
11.05.2017 13:18;12
11.05.2017 13:20;12
11.05.2017 13:21;12
11.05.2017 13:23;11
11.05.2017 13:25;11
11.05.2017 13:27;11
11.05.2017 13:29;12
11.05.2017 13:31;12
11.05.2017 13:32;12
11.05.2017 13:34;13
11.05.2017 13:36;13
11.05.2017 13:38;13
11.05.2017 13:40;13
11.05.2017 13:41;13
11.05.2017 13:43;14
11.05.2017 13:45;14
11.05.2017 13:47;14
11.05.2017 13:49;14
11.05.2017 13:51;13
11.05.2017 13:52;13
11.05.2017 13:54;14
11.05.2017 13:56;14
11.05.2017 13:58;14
11.05.2017 14:00;13
11.05.2017 14:01;13
11.05.2017 14:03;13
11.05.2017 14:05;13
11.05.2017 14:07;13
11.05.2017 14:08;13
11.05.2017 14:10;14
11.05.2017 14:12;13
11.05.2017 14:14;14
11.05.2017 14:16;14
11.05.2017 14:18;14
11.05.2017 14:19;14
11.05.2017 14:21;14
11.05.2017 14:23;12
11.05.2017 14:25;14
11.05.2017 14:26;14
11.05.2017 14:28;14
11.05.2017 14:30;14
11.05.2017 14:32;13
11.05.2017 14:33;13
11.05.2017 14:35;13
11.05.2017 14:37;13
11.05.2017 14:39;12
11.05.2017 14:40;11
11.05.2017 14:43;13
11.05.2017 14:44;12
11.05.2017 14:46;12
11.05.2017 14:48;14
11.05.2017 14:50;14
11.05.2017 14:52;13
11.05.2017 14:53;13
11.05.2017 14:55;14
11.05.2017 14:57;14
11.05.2017 14:59;14
11.05.2017 15:01;15
11.05.2017 15:02;14
11.05.2017 15:04;14
11.05.2017 15:06;14
11.05.2017 15:08;14
11.05.2017 15:09;14
11.05.2017 15:11;14
11.05.2017 15:13;13
11.05.2017 15:15;13
11.05.2017 15:16;13
11.05.2017 15:18;13
11.05.2017 15:20;13
11.05.2017 15:22;14
11.05.2017 15:23;14
11.05.2017 15:25;13
11.05.2017 15:27;13
11.05.2017 15:29;13
11.05.2017 15:31;15
11.05.2017 15:33;14
11.05.2017 15:35;15
11.05.2017 15:37;15
11.05.2017 15:39;15
11.05.2017 15:40;15
11.05.2017 15:42;16
11.05.2017 15:44;16
11.05.2017 15:46;15
11.05.2017 15:47;14
11.05.2017 15:49;14
11.05.2017 15:51;15
11.05.2017 15:53;14
11.05.2017 15:55;16
11.05.2017 15:57;14
11.05.2017 15:58;14
11.05.2017 16:00;14
11.05.2017 16:02;14
11.05.2017 16:04;12
11.05.2017 16:06;13
11.05.2017 16:08;14
11.05.2017 16:10;15
11.05.2017 16:11;15
11.05.2017 16:13;15
11.05.2017 16:15;14
11.05.2017 16:17;15
11.05.2017 16:19;14
11.05.2017 16:21;15
11.05.2017 16:23;15
11.05.2017 16:24;15
11.05.2017 16:26;16
11.05.2017 16:28;16
11.05.2017 16:30;16
11.05.2017 16:32;16
11.05.2017 16:33;16
11.05.2017 16:35;16
11.05.2017 16:37;16
11.05.2017 16:39;16
11.05.2017 16:41;15
11.05.2017 16:43;15
11.05.2017 16:45;16
11.05.2017 16:46;16
11.05.2017 16:48;15
11.05.2017 16:50;15
11.05.2017 16:52;15
11.05.2017 16:54;15
11.05.2017 16:56;16
11.05.2017 16:58;14
11.05.2017 17:00;15
11.05.2017 17:02;16
11.05.2017 17:03;16
11.05.2017 17:05;17
11.05.2017 17:07;17
11.05.2017 17:09;18
11.05.2017 17:11;18
11.05.2017 17:26;13
11.05.2017 17:28;15
11.05.2017 17:30;15
11.05.2017 17:32;15
11.05.2017 17:34;16
11.05.2017 17:36;16
11.05.2017 17:38;17
11.05.2017 17:40;17
11.05.2017 17:42;16
11.05.2017 17:44;16
11.05.2017 17:47;17
11.05.2017 17:48;17
11.05.2017 17:51;18
11.05.2017 17:53;18
11.05.2017 17:55;20
11.05.2017 17:57;19
11.05.2017 17:59;19
11.05.2017 18:01;19
11.05.2017 18:03;19
11.05.2017 18:05;19
11.05.2017 18:07;20
11.05.2017 18:09;19
11.05.2017 18:11;19
11.05.2017 18:13;18
11.05.2017 18:15;18
11.05.2017 18:17;18
11.05.2017 18:19;18
11.05.2017 18:21;17
11.05.2017 18:23;17
11.05.2017 18:25;16
11.05.2017 18:27;17
11.05.2017 18:30;15
11.05.2017 18:32;17
11.05.2017 18:34;16
11.05.2017 18:36;16
11.05.2017 18:38;15
11.05.2017 18:40;16
11.05.2017 18:43;17
11.05.2017 18:45;17
11.05.2017 18:47;17
11.05.2017 18:49;17
11.05.2017 18:51;17
11.05.2017 18:53;15
11.05.2017 18:55;16
11.05.2017 18:57;15
11.05.2017 18:59;17
11.05.2017 19:02;16
11.05.2017 19:04;17
11.05.2017 19:06;18
11.05.2017 19:08;17
11.05.2017 19:10;17
11.05.2017 19:12;17
11.05.2017 19:14;16
11.05.2017 19:16;18
11.05.2017 19:18;18
11.05.2017 19:20;18
11.05.2017 19:22;17
11.05.2017 19:24;17
11.05.2017 19:26;16
11.05.2017 19:28;17
11.05.2017 19:30;17
11.05.2017 19:32;18
11.05.2017 19:34;19
11.05.2017 19:36;18
11.05.2017 19:38;18
11.05.2017 19:41;19
11.05.2017 19:42;18
11.05.2017 19:44;18
11.05.2017 19:46;19
11.05.2017 19:48;19
11.05.2017 19:50;19
11.05.2017 19:52;19
11.05.2017 19:54;18
11.05.2017 19:56;18
11.05.2017 19:58;17
11.05.2017 20:01;17
11.05.2017 20:03;16
11.05.2017 20:05;14
11.05.2017 20:07;16
11.05.2017 20:09;17
11.05.2017 20:11;16
11.05.2017 20:13;16
11.05.2017 20:16;19
11.05.2017 20:18;19
11.05.2017 20:20;19
11.05.2017 20:21;19
11.05.2017 20:24;19
11.05.2017 20:26;19
11.05.2017 20:28;19
11.05.2017 20:30;19
11.05.2017 20:32;19
11.05.2017 20:34;19
11.05.2017 20:35;19
11.05.2017 20:37;18
11.05.2017 20:39;18
11.05.2017 20:41;18
11.05.2017 20:43;17
11.05.2017 20:45;17
11.05.2017 20:47;18
11.05.2017 20:49;16
11.05.2017 20:51;16
11.05.2017 20:54;16
11.05.2017 20:55;16
11.05.2017 20:58;18
11.05.2017 21:00;18
11.05.2017 21:02;17
11.05.2017 21:04;18
11.05.2017 21:06;18
11.05.2017 21:08;18
11.05.2017 21:10;18
11.05.2017 21:13;17
11.05.2017 21:15;17
11.05.2017 21:18;18
11.05.2017 21:20;17
11.05.2017 21:22;17
11.05.2017 21:24;16
11.05.2017 21:27;17
11.05.2017 21:28;16
11.05.2017 21:30;15
11.05.2017 21:32;16
11.05.2017 21:35;15
11.05.2017 21:36;14
11.05.2017 21:39;17
11.05.2017 21:41;15
11.05.2017 21:43;16
11.05.2017 21:45;16
11.05.2017 21:47;17
11.05.2017 21:49;16
11.05.2017 21:51;16
11.05.2017 21:53;16
11.05.2017 21:55;16
11.05.2017 21:57;16
11.05.2017 21:59;14
11.05.2017 22:01;15
11.05.2017 22:03;15
11.05.2017 22:04;15
11.05.2017 22:06;15
11.05.2017 22:08;14
11.05.2017 22:10;14
11.05.2017 22:12;14
11.05.2017 22:14;15
11.05.2017 22:16;16
11.05.2017 22:18;17
11.05.2017 22:20;17
11.05.2017 22:22;18
11.05.2017 22:24;17
11.05.2017 22:26;16
11.05.2017 22:28;16
11.05.2017 22:30;17
11.05.2017 22:32;17
11.05.2017 22:34;18
11.05.2017 22:36;19
11.05.2017 22:38;19
11.05.2017 22:40;19
11.05.2017 22:41;18
11.05.2017 22:43;19
11.05.2017 22:45;18
11.05.2017 22:47;18
11.05.2017 22:49;18
11.05.2017 22:51;18
11.05.2017 22:53;18
11.05.2017 22:54;18
11.05.2017 22:56;18
11.05.2017 22:58;18
11.05.2017 23:00;17
11.05.2017 23:02;17
11.05.2017 23:04;14
11.05.2017 23:05;14
11.05.2017 23:07;14
11.05.2017 23:09;14
11.05.2017 23:11;13
11.05.2017 23:13;12
11.05.2017 23:15;12
11.05.2017 23:17;13
11.05.2017 23:19;12
11.05.2017 23:21;14
11.05.2017 23:23;15
11.05.2017 23:25;14
11.05.2017 23:26;14
11.05.2017 23:28;12
11.05.2017 23:30;13
11.05.2017 23:32;13
11.05.2017 23:34;13
11.05.2017 23:36;14
11.05.2017 23:38;15
11.05.2017 23:40;15
11.05.2017 23:42;16
11.05.2017 23:44;17
11.05.2017 23:46;16
11.05.2017 23:47;16
11.05.2017 23:49;16
11.05.2017 23:51;17
11.05.2017 23:53;17
11.05.2017 23:54;17
11.05.2017 23:56;17
11.05.2017 23:58;16
11.05.2017 23:59;16
12.05.2017 00:01;16
12.05.2017 00:03;16
12.05.2017 00:05;15
12.05.2017 00:07;15
12.05.2017 00:08;15
12.05.2017 00:10;15
12.05.2017 00:12;15
12.05.2017 00:14;15
12.05.2017 00:15;14
12.05.2017 00:17;14
12.05.2017 00:19;13
12.05.2017 00:21;13
12.05.2017 00:23;13
12.05.2017 00:24;12
12.05.2017 00:26;13
12.05.2017 00:28;13
12.05.2017 00:29;12
12.05.2017 00:31;10
12.05.2017 00:33;10
12.05.2017 00:35;9
12.05.2017 00:37;8
12.05.2017 00:38;8
12.05.2017 00:40;8
12.05.2017 00:42;8
12.05.2017 00:44;8
12.05.2017 00:46;8
12.05.2017 00:48;10
12.05.2017 00:49;9
12.05.2017 00:51;10
12.05.2017 00:53;9
12.05.2017 00:55;10
12.05.2017 00:57;9
12.05.2017 00:59;9
12.05.2017 01:00;9
12.05.2017 01:02;9
12.05.2017 01:04;8
12.05.2017 01:05;8
12.05.2017 01:07;9
12.05.2017 01:09;9
12.05.2017 01:11;10
12.05.2017 01:13;10
12.05.2017 01:14;10
12.05.2017 01:16;10
12.05.2017 01:18;10
12.05.2017 01:20;12
12.05.2017 01:22;12
12.05.2017 01:23;12
12.05.2017 01:25;12
12.05.2017 01:27;12
12.05.2017 01:28;12
12.05.2017 01:30;11
12.05.2017 01:32;12
12.05.2017 01:34;12
12.05.2017 01:35;12
12.05.2017 01:37;11
12.05.2017 01:39;11
12.05.2017 01:41;11
12.05.2017 01:43;11
12.05.2017 01:44;11
12.05.2017 01:46;11
12.05.2017 01:48;11
12.05.2017 01:50;10
12.05.2017 01:51;11
12.05.2017 01:53;10
12.05.2017 01:55;10
12.05.2017 01:57;10
12.05.2017 01:58;10
12.05.2017 02:00;10
12.05.2017 02:02;8
12.05.2017 02:04;8
12.05.2017 02:06;8
12.05.2017 02:07;8
12.05.2017 02:09;8
12.05.2017 02:11;10
12.05.2017 02:13;10
12.05.2017 02:15;10
12.05.2017 02:17;10
12.05.2017 02:19;11
12.05.2017 02:20;10
12.05.2017 02:22;10
12.05.2017 02:24;11
12.05.2017 02:26;11
12.05.2017 02:28;11
12.05.2017 02:29;11
12.05.2017 02:31;11
12.05.2017 02:33;11
12.05.2017 02:35;12
12.05.2017 02:37;12
12.05.2017 02:38;10
12.05.2017 02:40;11
12.05.2017 02:42;10
12.05.2017 02:44;11
12.05.2017 02:45;9
12.05.2017 02:47;10
12.05.2017 02:49;10
12.05.2017 02:51;11
12.05.2017 02:53;12
12.05.2017 02:55;12
12.05.2017 02:57;13
12.05.2017 02:58;13
12.05.2017 03:00;13
12.05.2017 03:02;12
12.05.2017 03:04;12
12.05.2017 03:05;12
12.05.2017 03:07;12
12.05.2017 03:09;13
12.05.2017 03:11;13
12.05.2017 03:12;13
12.05.2017 03:14;12
12.05.2017 03:16;13
12.05.2017 03:17;13
12.05.2017 03:19;13
12.05.2017 03:21;14
12.05.2017 03:23;14
12.05.2017 03:24;13
12.05.2017 03:26;14
12.05.2017 03:28;13
12.05.2017 03:30;13
12.05.2017 03:32;14
12.05.2017 03:33;14
12.05.2017 03:35;14
12.05.2017 03:37;15
12.05.2017 03:39;15
12.05.2017 03:41;15
12.05.2017 03:42;15
12.05.2017 03:44;15
12.05.2017 03:46;15
12.05.2017 03:48;16
12.05.2017 03:49;16
12.05.2017 03:51;15
12.05.2017 03:53;15
12.05.2017 03:55;15
12.05.2017 03:57;14
12.05.2017 04:00;14
12.05.2017 04:02;14
12.05.2017 04:05;15
12.05.2017 04:08;14
12.05.2017 04:10;13
12.05.2017 04:12;13
12.05.2017 04:14;13
12.05.2017 04:15;12
12.05.2017 04:17;14
12.05.2017 04:19;13
12.05.2017 04:21;13
12.05.2017 04:23;13
12.05.2017 04:24;14
12.05.2017 04:26;14
12.05.2017 04:29;14
12.05.2017 04:32;15
12.05.2017 04:35;15
12.05.2017 04:37;15
12.05.2017 04:39;15
12.05.2017 04:41;15
12.05.2017 04:43;16
12.05.2017 04:44;16
12.05.2017 04:46;16
12.05.2017 04:48;17
12.05.2017 04:50;18
12.05.2017 04:51;18
12.05.2017 04:53;18
12.05.2017 04:55;17
12.05.2017 04:57;17
12.05.2017 04:59;18
12.05.2017 05:00;16
12.05.2017 05:02;16
12.05.2017 05:04;16
12.05.2017 05:06;17
12.05.2017 05:07;16
12.05.2017 05:09;16
12.05.2017 05:11;16
12.05.2017 05:13;15
12.05.2017 05:15;16
12.05.2017 05:17;14
12.05.2017 05:19;15
12.05.2017 05:20;15
12.05.2017 05:22;15
12.05.2017 05:24;14
12.05.2017 05:26;14
12.05.2017 05:28;15
12.05.2017 05:30;14
12.05.2017 05:32;14
12.05.2017 05:33;15
12.05.2017 05:35;15
12.05.2017 05:37;14
12.05.2017 05:39;14
12.05.2017 05:41;14
12.05.2017 05:43;15
12.05.2017 05:44;14
12.05.2017 05:46;15
12.05.2017 05:48;14
12.05.2017 05:50;14
12.05.2017 05:52;13
12.05.2017 05:54;14
12.05.2017 05:55;13
12.05.2017 05:57;13
12.05.2017 05:59;13
12.05.2017 06:01;13
12.05.2017 06:03;13
12.05.2017 06:05;12
12.05.2017 06:07;13
12.05.2017 06:08;13
12.05.2017 06:10;14
12.05.2017 06:12;14
12.05.2017 06:14;14
12.05.2017 06:16;13
12.05.2017 06:18;13
12.05.2017 06:20;13
12.05.2017 06:22;13
12.05.2017 06:24;15
12.05.2017 06:26;15
12.05.2017 06:28;15
12.05.2017 06:29;15
12.05.2017 06:31;17
12.05.2017 06:33;18
12.05.2017 06:35;18
12.05.2017 06:37;17
12.05.2017 06:39;17
12.05.2017 06:41;17
12.05.2017 06:42;17
12.05.2017 06:44;16
12.05.2017 06:46;15
12.05.2017 06:48;15
12.05.2017 06:50;15
12.05.2017 06:52;16
12.05.2017 06:53;16
12.05.2017 06:55;15
12.05.2017 06:57;16
12.05.2017 06:59;17
12.05.2017 07:01;18
12.05.2017 07:03;18
12.05.2017 07:05;16
12.05.2017 07:07;16
12.05.2017 07:08;16
12.05.2017 07:10;16
12.05.2017 07:12;16
12.05.2017 07:14;17
12.05.2017 07:16;18
12.05.2017 07:18;16
12.05.2017 07:20;15
12.05.2017 07:22;16
12.05.2017 07:24;18
12.05.2017 07:26;18
12.05.2017 07:28;19
12.05.2017 07:30;20
12.05.2017 07:32;20
12.05.2017 07:34;19
12.05.2017 07:35;19
12.05.2017 07:37;17
12.05.2017 07:39;18
12.05.2017 07:41;18
12.05.2017 07:43;18
12.05.2017 07:45;17
12.05.2017 07:47;15
12.05.2017 07:48;15
12.05.2017 07:51;16
12.05.2017 07:52;16
12.05.2017 07:54;16
12.05.2017 07:56;16
12.05.2017 07:58;16
12.05.2017 08:00;15
12.05.2017 08:02;15
12.05.2017 08:04;15
12.05.2017 08:06;15
12.05.2017 08:07;14
12.05.2017 08:09;15
12.05.2017 08:11;14
12.05.2017 08:13;16
12.05.2017 08:15;17
12.05.2017 08:17;17
12.05.2017 08:19;17
12.05.2017 08:21;17
12.05.2017 08:23;17
12.05.2017 08:25;16
12.05.2017 08:26;17
12.05.2017 08:28;16
12.05.2017 08:30;16
12.05.2017 08:32;16
12.05.2017 08:34;16
12.05.2017 08:36;16
12.05.2017 08:38;16
12.05.2017 08:40;16
12.05.2017 08:42;17
12.05.2017 08:43;15
12.05.2017 08:45;15
12.05.2017 08:47;15
12.05.2017 08:49;13
12.05.2017 08:51;13
12.05.2017 08:53;13
12.05.2017 08:55;14
12.05.2017 08:56;14
12.05.2017 08:58;15
12.05.2017 09:00;14
12.05.2017 09:02;12
12.05.2017 09:04;12
12.05.2017 09:06;13
12.05.2017 09:07;12
12.05.2017 09:09;12
12.05.2017 09:11;13
12.05.2017 09:13;14
12.05.2017 09:15;16
12.05.2017 09:17;16
12.05.2017 09:19;16
12.05.2017 09:21;16
12.05.2017 09:23;16
12.05.2017 09:24;16
12.05.2017 09:26;16
12.05.2017 09:28;15
12.05.2017 09:30;14
12.05.2017 09:31;13
12.05.2017 09:33;14
12.05.2017 09:35;13
12.05.2017 09:37;13
12.05.2017 09:39;12
12.05.2017 09:41;13
12.05.2017 09:43;13
12.05.2017 09:45;13
12.05.2017 09:46;13
12.05.2017 09:48;14
12.05.2017 09:50;13
12.05.2017 09:52;13
12.05.2017 09:53;13
12.05.2017 09:55;13
12.05.2017 09:57;13
12.05.2017 09:59;14
12.05.2017 10:01;12
12.05.2017 10:03;13
12.05.2017 10:04;14
12.05.2017 10:06;14
12.05.2017 10:08;14
12.05.2017 10:10;14
12.05.2017 10:11;14
12.05.2017 10:13;15
12.05.2017 10:15;15
12.05.2017 10:17;15
12.05.2017 10:18;13
12.05.2017 10:20;13
12.05.2017 10:22;11
12.05.2017 10:24;12
12.05.2017 10:25;12
12.05.2017 10:27;12
12.05.2017 10:29;11
12.05.2017 10:31;10
12.05.2017 10:33;9
12.05.2017 10:35;11
12.05.2017 10:37;9
12.05.2017 10:39;9
12.05.2017 10:41;9
12.05.2017 10:42;10
12.05.2017 10:44;10
12.05.2017 10:46;10
12.05.2017 10:48;10
12.05.2017 10:50;10
12.05.2017 10:51;10
12.05.2017 10:53;10
12.05.2017 10:55;10
12.05.2017 10:57;9
12.05.2017 10:59;10
12.05.2017 11:47;8
12.05.2017 11:49;10
12.05.2017 11:51;10
12.05.2017 11:52;10
12.05.2017 11:54;11
12.05.2017 11:56;11
12.05.2017 11:58;11
12.05.2017 12:00;12
12.05.2017 12:02;13
12.05.2017 12:04;13
12.05.2017 12:06;13
12.05.2017 12:07;13
12.05.2017 12:09;13
12.05.2017 12:11;13
12.05.2017 12:13;13
12.05.2017 12:15;13
12.05.2017 12:17;13
12.05.2017 12:19;13
12.05.2017 12:20;13
12.05.2017 12:22;14
12.05.2017 12:24;15
12.05.2017 12:26;14
12.05.2017 12:28;14
12.05.2017 12:30;14
12.05.2017 12:32;14
12.05.2017 12:33;14
12.05.2017 12:35;14
12.05.2017 12:37;14
12.05.2017 12:39;14
12.05.2017 12:41;14
12.05.2017 12:43;13
12.05.2017 12:45;13
12.05.2017 12:46;13
12.05.2017 12:48;13
12.05.2017 12:50;14
12.05.2017 12:52;15
12.05.2017 12:55;17
12.05.2017 12:56;16
12.05.2017 12:58;16
12.05.2017 13:00;14
12.05.2017 13:02;14
12.05.2017 13:04;14
12.05.2017 13:06;15
12.05.2017 13:08;16
12.05.2017 13:10;17
12.05.2017 13:12;18
12.05.2017 13:13;17
12.05.2017 13:15;16
12.05.2017 13:17;16
12.05.2017 13:19;15
12.05.2017 13:21;16
12.05.2017 13:22;15
12.05.2017 13:24;15
12.05.2017 13:26;17
12.05.2017 13:28;17
12.05.2017 13:30;17
12.05.2017 13:32;17
12.05.2017 13:33;16
12.05.2017 13:35;15
12.05.2017 13:37;15
12.05.2017 13:39;15
12.05.2017 13:40;15
12.05.2017 13:42;16
12.05.2017 13:44;16
12.05.2017 13:46;16
12.05.2017 13:48;15
12.05.2017 13:50;15
12.05.2017 13:51;15
12.05.2017 13:53;15
12.05.2017 13:55;15
12.05.2017 13:57;15
12.05.2017 13:59;14
12.05.2017 14:01;13
12.05.2017 14:02;14
12.05.2017 14:05;16
12.05.2017 14:06;16
12.05.2017 14:08;16
12.05.2017 14:10;17
12.05.2017 14:12;17
12.05.2017 14:14;17
12.05.2017 14:16;17
12.05.2017 14:17;17
12.05.2017 14:19;14
12.05.2017 14:21;14
12.05.2017 14:23;14
12.05.2017 14:25;14
12.05.2017 14:27;14
12.05.2017 14:29;13
12.05.2017 14:31;13
12.05.2017 14:32;14
12.05.2017 14:34;13
12.05.2017 14:36;11
12.05.2017 14:38;11
12.05.2017 14:40;12
12.05.2017 14:42;12
12.05.2017 14:45;12
12.05.2017 14:46;12
12.05.2017 14:48;12
12.05.2017 14:50;14
12.05.2017 14:52;13
12.05.2017 14:54;13
12.05.2017 14:56;12
12.05.2017 14:58;12
12.05.2017 14:59;12
12.05.2017 15:01;12
12.05.2017 15:03;13
12.05.2017 15:05;13
12.05.2017 15:08;12
12.05.2017 15:09;12
12.05.2017 15:11;12
12.05.2017 15:14;11
12.05.2017 15:16;13
12.05.2017 15:18;13
12.05.2017 15:20;12
12.05.2017 15:23;14
12.05.2017 15:25;13
12.05.2017 15:27;13
12.05.2017 15:29;13
12.05.2017 15:31;14
12.05.2017 15:33;14
12.05.2017 15:35;15
12.05.2017 15:37;15
12.05.2017 15:39;15
12.05.2017 15:41;15
12.05.2017 15:43;16
12.05.2017 15:45;15
12.05.2017 15:47;15
12.05.2017 15:49;16
12.05.2017 15:51;15
12.05.2017 15:53;16
12.05.2017 15:55;15
12.05.2017 15:57;15
12.05.2017 15:59;14
12.05.2017 16:01;14
12.05.2017 16:03;14
12.05.2017 16:06;14
12.05.2017 16:08;14
12.05.2017 16:10;14
12.05.2017 16:12;13
12.05.2017 16:15;14
12.05.2017 16:17;14
12.05.2017 16:20;14
12.05.2017 16:22;15
12.05.2017 16:24;16
12.05.2017 16:26;15
12.05.2017 16:29;15
12.05.2017 16:31;16
12.05.2017 16:33;16
12.05.2017 16:35;15
12.05.2017 16:37;14
12.05.2017 16:39;14
12.05.2017 16:41;14
12.05.2017 16:43;14
12.05.2017 16:45;14
12.05.2017 16:47;14
12.05.2017 16:50;15
12.05.2017 16:52;15
12.05.2017 16:54;14
12.05.2017 16:56;14
12.05.2017 16:58;15
12.05.2017 17:16;10
12.05.2017 17:18;11
12.05.2017 17:20;11
12.05.2017 17:22;11
12.05.2017 17:25;13
12.05.2017 17:26;12
12.05.2017 17:28;11
12.05.2017 17:30;12
12.05.2017 17:32;13
12.05.2017 17:34;14
12.05.2017 17:36;14
12.05.2017 17:39;14
12.05.2017 17:41;14
12.05.2017 17:43;15
12.05.2017 17:45;15
12.05.2017 17:47;15
12.05.2017 17:49;15
12.05.2017 17:51;17
12.05.2017 17:53;16
12.05.2017 17:54;16
12.05.2017 17:56;15
12.05.2017 17:58;14
12.05.2017 18:01;14
12.05.2017 18:03;15
12.05.2017 18:05;15
12.05.2017 18:07;14
12.05.2017 18:09;15
12.05.2017 18:11;15
12.05.2017 18:13;16
12.05.2017 18:15;16
12.05.2017 18:17;15
12.05.2017 18:19;15
12.05.2017 18:21;14
12.05.2017 18:23;15
12.05.2017 18:25;17
12.05.2017 18:27;17
12.05.2017 18:29;15
12.05.2017 18:31;15
12.05.2017 18:33;15
12.05.2017 18:35;16
12.05.2017 18:37;16
12.05.2017 18:39;15
12.05.2017 18:41;15
12.05.2017 18:43;15
12.05.2017 18:45;16
12.05.2017 18:47;17
12.05.2017 18:49;18
12.05.2017 18:52;18
12.05.2017 18:53;18
12.05.2017 18:55;17
12.05.2017 18:57;17
12.05.2017 18:59;18
12.05.2017 19:01;17
12.05.2017 19:03;18
12.05.2017 19:05;18
12.05.2017 19:07;18
12.05.2017 19:09;18
12.05.2017 19:11;16
12.05.2017 19:13;15
12.05.2017 19:15;15
12.05.2017 19:17;15
12.05.2017 19:19;15
12.05.2017 19:21;17
12.05.2017 19:23;17
12.05.2017 19:26;16
12.05.2017 19:27;15
12.05.2017 19:29;16
12.05.2017 19:32;17
12.05.2017 19:34;16
12.05.2017 19:36;16
12.05.2017 19:38;16
12.05.2017 19:40;15
12.05.2017 19:42;14
12.05.2017 19:44;16
12.05.2017 19:46;15
12.05.2017 19:49;15
12.05.2017 19:51;15
12.05.2017 19:53;14
12.05.2017 19:55;16
12.05.2017 19:57;17
12.05.2017 19:59;16
12.05.2017 20:01;16
12.05.2017 20:03;15
12.05.2017 20:05;15
12.05.2017 20:07;14
12.05.2017 20:09;14
12.05.2017 20:11;15
12.05.2017 20:13;15
12.05.2017 20:16;16
12.05.2017 20:18;15
12.05.2017 20:19;14
12.05.2017 20:21;13
12.05.2017 20:23;14
12.05.2017 20:25;14
12.05.2017 20:27;15
12.05.2017 20:29;14
12.05.2017 20:31;14
12.05.2017 20:33;16
12.05.2017 20:35;15
12.05.2017 20:37;17
12.05.2017 20:39;16
12.05.2017 20:41;16
12.05.2017 20:43;13
12.05.2017 20:45;14
12.05.2017 20:47;15
12.05.2017 20:49;14
12.05.2017 20:51;14
12.05.2017 20:53;15
12.05.2017 20:55;15
12.05.2017 20:57;14
12.05.2017 20:59;12
12.05.2017 21:01;12
12.05.2017 21:03;15
12.05.2017 21:05;15
12.05.2017 21:07;15
12.05.2017 21:09;15
12.05.2017 21:11;16
12.05.2017 21:13;13
12.05.2017 21:16;16
12.05.2017 21:18;15
12.05.2017 21:19;15
12.05.2017 21:22;17
12.05.2017 21:24;16
12.05.2017 21:26;16
12.05.2017 21:28;16
12.05.2017 21:30;15
12.05.2017 21:32;15
12.05.2017 21:34;16
12.05.2017 21:36;16
12.05.2017 21:39;17
12.05.2017 21:41;16
12.05.2017 21:42;16
12.05.2017 21:45;18
12.05.2017 21:47;17
12.05.2017 21:49;17
12.05.2017 21:51;16
12.05.2017 21:52;16
12.05.2017 21:54;16
12.05.2017 21:57;16
12.05.2017 21:59;16
12.05.2017 22:03;14
12.05.2017 22:07;14
12.05.2017 22:09;16
12.05.2017 22:11;16
12.05.2017 22:13;17
12.05.2017 22:15;16
12.05.2017 22:18;17
12.05.2017 22:20;18
12.05.2017 22:22;16
12.05.2017 22:24;17
12.05.2017 22:26;17
12.05.2017 22:28;16
12.05.2017 22:31;18
12.05.2017 22:33;17
12.05.2017 22:35;16
12.05.2017 22:37;16
12.05.2017 22:39;16
12.05.2017 22:41;16
12.05.2017 22:43;17
12.05.2017 22:46;18
12.05.2017 22:48;16
12.05.2017 22:50;17
12.05.2017 22:52;16
12.05.2017 22:54;17
12.05.2017 22:56;16
12.05.2017 22:58;15
12.05.2017 23:00;15
12.05.2017 23:02;16
12.05.2017 23:05;14
12.05.2017 23:07;15
12.05.2017 23:09;15
12.05.2017 23:11;15
12.05.2017 23:13;16
12.05.2017 23:15;15
12.05.2017 23:17;15
12.05.2017 23:19;15
12.05.2017 23:21;15
12.05.2017 23:23;16
12.05.2017 23:25;17
12.05.2017 23:27;16
12.05.2017 23:29;15
12.05.2017 23:31;17
12.05.2017 23:33;17
12.05.2017 23:36;16
12.05.2017 23:38;17
12.05.2017 23:40;16
12.05.2017 23:42;16
12.05.2017 23:44;16
12.05.2017 23:46;17
12.05.2017 23:48;16
12.05.2017 23:50;17
12.05.2017 23:52;18
12.05.2017 23:54;17
12.05.2017 23:56;16
12.05.2017 23:58;15
13.05.2017 00:00;16
13.05.2017 00:02;16
13.05.2017 00:04;15
13.05.2017 00:06;16
13.05.2017 00:08;15
13.05.2017 00:10;15
13.05.2017 00:12;14
13.05.2017 00:14;15
13.05.2017 00:16;14
13.05.2017 00:18;14
13.05.2017 00:20;15
13.05.2017 00:22;14
13.05.2017 00:24;14
13.05.2017 00:26;13
13.05.2017 00:28;12
13.05.2017 00:30;12
13.05.2017 00:32;12
13.05.2017 00:34;12
13.05.2017 00:36;12
13.05.2017 00:38;12
13.05.2017 00:40;13
13.05.2017 00:42;13
13.05.2017 00:44;13
13.05.2017 00:46;12
13.05.2017 00:48;13
13.05.2017 00:50;12
13.05.2017 00:52;13
13.05.2017 00:53;12
13.05.2017 00:55;12
13.05.2017 00:57;12
13.05.2017 00:59;12
13.05.2017 01:01;13
13.05.2017 01:03;13
13.05.2017 01:05;13
13.05.2017 01:06;13
13.05.2017 01:08;13
13.05.2017 01:10;13
13.05.2017 01:12;14
13.05.2017 01:14;14
13.05.2017 01:16;14
13.05.2017 01:18;14
13.05.2017 01:20;14
13.05.2017 01:21;14
13.05.2017 01:23;14
13.05.2017 01:25;15
13.05.2017 01:27;16
13.05.2017 01:29;15
13.05.2017 01:31;15
13.05.2017 01:33;14
13.05.2017 01:35;11
13.05.2017 01:37;10
13.05.2017 01:39;10
13.05.2017 01:41;10
13.05.2017 01:42;10
13.05.2017 01:45;13
13.05.2017 01:47;12
13.05.2017 01:48;12
13.05.2017 01:50;11
13.05.2017 01:53;13
13.05.2017 01:54;14
13.05.2017 01:56;13
13.05.2017 01:58;13
13.05.2017 02:00;13
13.05.2017 02:02;12
13.05.2017 02:03;11
13.05.2017 02:05;12
13.05.2017 02:08;14
13.05.2017 02:10;15
13.05.2017 02:11;16
13.05.2017 02:13;15
13.05.2017 02:15;15
13.05.2017 02:17;16
13.05.2017 02:19;16
13.05.2017 02:21;16
13.05.2017 02:23;16
13.05.2017 02:24;17
13.05.2017 02:26;16
13.05.2017 02:28;18
13.05.2017 02:30;18
13.05.2017 02:32;18
13.05.2017 02:34;18
13.05.2017 02:36;18
13.05.2017 02:38;17
13.05.2017 02:39;17
13.05.2017 02:41;17
13.05.2017 02:43;17
13.05.2017 02:45;16
13.05.2017 02:47;17
13.05.2017 02:49;15
13.05.2017 02:51;15
13.05.2017 02:52;15
13.05.2017 02:54;15
13.05.2017 02:56;14
13.05.2017 02:58;14
13.05.2017 03:00;13
13.05.2017 03:02;13
13.05.2017 03:04;13
13.05.2017 03:06;13
13.05.2017 03:08;14
13.05.2017 03:10;16
13.05.2017 03:12;16
13.05.2017 03:14;16
13.05.2017 03:15;16
13.05.2017 03:17;16
13.05.2017 03:19;16
13.05.2017 03:21;16
13.05.2017 03:23;16
13.05.2017 03:25;17
13.05.2017 03:26;16
13.05.2017 03:28;17
13.05.2017 03:30;17
13.05.2017 03:32;17
13.05.2017 03:34;17
13.05.2017 03:36;16
13.05.2017 03:38;16
13.05.2017 03:40;16
13.05.2017 03:42;16
13.05.2017 03:44;17
13.05.2017 03:46;16
13.05.2017 03:48;16
13.05.2017 03:50;16
13.05.2017 03:52;17
13.05.2017 03:53;16
13.05.2017 03:56;16
13.05.2017 03:57;16
13.05.2017 03:59;16
13.05.2017 04:01;13
13.05.2017 04:03;14
13.05.2017 04:06;17
13.05.2017 04:08;16
13.05.2017 04:10;14
13.05.2017 04:11;15
13.05.2017 04:13;16
13.05.2017 04:15;16
13.05.2017 04:17;16
13.05.2017 04:19;17
13.05.2017 04:21;16
13.05.2017 04:23;17
13.05.2017 04:25;16
13.05.2017 04:27;16
13.05.2017 04:29;16
13.05.2017 04:31;16
13.05.2017 04:33;18
13.05.2017 04:35;14
13.05.2017 04:37;15
13.05.2017 04:39;16
13.05.2017 04:41;18
13.05.2017 04:43;16
13.05.2017 04:45;16
13.05.2017 04:47;15
13.05.2017 04:49;16
13.05.2017 04:52;17
13.05.2017 04:53;17
13.05.2017 04:55;17
13.05.2017 04:57;16
13.05.2017 04:59;16
13.05.2017 05:01;14
13.05.2017 05:03;14
13.05.2017 05:05;14
13.05.2017 05:07;14
13.05.2017 05:09;15
13.05.2017 05:12;18
13.05.2017 05:14;15
13.05.2017 05:15;15
13.05.2017 05:17;15
13.05.2017 05:20;16
13.05.2017 05:21;16
13.05.2017 05:23;16
13.05.2017 05:25;17
13.05.2017 05:27;17
13.05.2017 05:29;17
13.05.2017 05:32;18
13.05.2017 05:34;17
13.05.2017 05:36;18
13.05.2017 05:38;18
13.05.2017 05:40;17
13.05.2017 05:42;16
13.05.2017 05:44;16
13.05.2017 05:46;16
13.05.2017 05:48;16
13.05.2017 05:50;16
13.05.2017 05:52;16
13.05.2017 05:54;16
13.05.2017 05:56;16
13.05.2017 05:58;16
13.05.2017 06:00;17
13.05.2017 06:02;16
13.05.2017 06:04;17
13.05.2017 06:06;17
13.05.2017 06:08;17
13.05.2017 06:10;17
13.05.2017 06:12;18
13.05.2017 06:14;18
13.05.2017 06:16;18
13.05.2017 06:18;18
13.05.2017 06:20;18
13.05.2017 06:22;18
13.05.2017 06:24;18
13.05.2017 06:25;17
13.05.2017 06:27;17
13.05.2017 06:29;17
13.05.2017 06:31;17
13.05.2017 06:33;16
13.05.2017 06:35;15
13.05.2017 06:37;16
13.05.2017 06:39;16
13.05.2017 06:41;17
13.05.2017 06:43;16
13.05.2017 06:45;16
13.05.2017 06:47;17
13.05.2017 06:49;18
13.05.2017 06:52;19
13.05.2017 06:54;16
13.05.2017 06:56;16
13.05.2017 06:58;17
13.05.2017 07:01;16
13.05.2017 07:03;16
13.05.2017 07:06;16
13.05.2017 07:08;18
13.05.2017 07:11;18
13.05.2017 07:13;18
13.05.2017 07:17;21
13.05.2017 07:20;20
13.05.2017 07:22;19
13.05.2017 07:24;19
13.05.2017 07:26;19
13.05.2017 07:28;19
13.05.2017 07:31;19
13.05.2017 07:33;18
13.05.2017 07:35;18
13.05.2017 07:38;17
13.05.2017 07:40;17
13.05.2017 07:43;17
13.05.2017 07:46;16
13.05.2017 07:49;16
13.05.2017 07:51;16
13.05.2017 07:53;17
13.05.2017 07:54;17
13.05.2017 07:56;17
13.05.2017 07:58;17
13.05.2017 08:00;17
13.05.2017 08:02;17
13.05.2017 08:04;17
13.05.2017 08:06;17
13.05.2017 08:08;16
13.05.2017 08:10;17
13.05.2017 08:12;16
13.05.2017 08:14;16
13.05.2017 08:16;16
13.05.2017 08:18;17
13.05.2017 08:20;16
13.05.2017 08:22;16
13.05.2017 08:24;17
13.05.2017 08:26;16
13.05.2017 08:28;16
13.05.2017 08:30;15
13.05.2017 08:32;15
13.05.2017 08:34;15
13.05.2017 08:36;16
13.05.2017 08:38;15
13.05.2017 08:40;16
13.05.2017 08:42;17
13.05.2017 08:44;15
13.05.2017 08:46;15
13.05.2017 08:48;15
13.05.2017 08:50;15
13.05.2017 08:52;14
13.05.2017 08:54;14
13.05.2017 08:56;15
13.05.2017 08:58;16
13.05.2017 09:00;16
13.05.2017 09:02;16
13.05.2017 09:04;16
13.05.2017 09:06;17
13.05.2017 09:08;17
13.05.2017 09:10;17
13.05.2017 09:12;18
13.05.2017 09:14;19
13.05.2017 09:16;19
13.05.2017 09:18;18
13.05.2017 09:20;16
13.05.2017 09:22;16
13.05.2017 09:25;16
13.05.2017 09:27;17
13.05.2017 09:29;18
13.05.2017 09:31;17
13.05.2017 09:33;16
13.05.2017 09:35;18
13.05.2017 09:37;16
13.05.2017 09:39;16
13.05.2017 09:41;16
13.05.2017 09:43;17
13.05.2017 09:45;14
13.05.2017 09:47;13
13.05.2017 09:49;14
13.05.2017 09:52;15
13.05.2017 09:54;14
13.05.2017 09:56;15
13.05.2017 09:58;17
13.05.2017 10:00;18
13.05.2017 10:02;17
13.05.2017 10:04;17
13.05.2017 10:06;18
13.05.2017 10:08;16
13.05.2017 10:10;16
13.05.2017 10:12;14
13.05.2017 10:14;15
13.05.2017 10:16;16
13.05.2017 10:18;16
13.05.2017 10:20;15
13.05.2017 10:22;14
13.05.2017 10:24;14
13.05.2017 10:26;16
13.05.2017 10:28;16
13.05.2017 10:30;16
13.05.2017 10:32;16
13.05.2017 10:34;16
13.05.2017 10:36;16
13.05.2017 10:38;17
13.05.2017 10:40;17
13.05.2017 10:42;15
13.05.2017 10:44;15
13.05.2017 10:46;16
13.05.2017 10:48;15
13.05.2017 10:50;15
13.05.2017 10:52;15
13.05.2017 10:54;16
13.05.2017 10:56;15
13.05.2017 10:58;15
13.05.2017 11:00;15
13.05.2017 11:02;15
13.05.2017 11:04;16
13.05.2017 11:06;15
13.05.2017 11:08;14
13.05.2017 11:10;15
13.05.2017 11:12;15
13.05.2017 11:14;16
13.05.2017 11:16;15
13.05.2017 11:18;14
13.05.2017 11:20;13
13.05.2017 11:22;13
13.05.2017 11:23;13
13.05.2017 11:25;13
13.05.2017 11:27;14
13.05.2017 11:29;15
13.05.2017 11:31;13
13.05.2017 11:33;13
13.05.2017 11:35;13
13.05.2017 11:37;14
13.05.2017 11:39;12
13.05.2017 11:41;13
13.05.2017 11:43;13
13.05.2017 11:45;12
13.05.2017 11:47;11
13.05.2017 11:49;10
13.05.2017 11:51;10
13.05.2017 11:53;11
13.05.2017 11:54;10
13.05.2017 11:56;10
13.05.2017 11:58;9
13.05.2017 12:00;10
13.05.2017 12:03;11
13.05.2017 12:04;11
13.05.2017 12:06;11
13.05.2017 12:08;9
13.05.2017 12:10;8
13.05.2017 12:13;10
13.05.2017 12:15;11
13.05.2017 12:17;11
13.05.2017 12:19;12
13.05.2017 12:21;11
13.05.2017 12:23;12
13.05.2017 12:25;12
13.05.2017 12:27;12
13.05.2017 12:29;13
13.05.2017 12:31;14
13.05.2017 12:32;14
13.05.2017 12:34;14
13.05.2017 12:36;12
13.05.2017 12:38;12
13.05.2017 12:40;11
13.05.2017 12:42;12
13.05.2017 12:44;12
13.05.2017 12:46;12
13.05.2017 12:48;12
13.05.2017 12:50;11
13.05.2017 12:52;10
13.05.2017 12:54;10
13.05.2017 12:56;11
13.05.2017 12:58;12
13.05.2017 13:00;12
13.05.2017 13:02;14
13.05.2017 13:04;13
13.05.2017 13:05;12
13.05.2017 13:07;10
13.05.2017 13:09;10
13.05.2017 13:11;12
13.05.2017 13:13;11
13.05.2017 13:15;10
13.05.2017 13:17;10
13.05.2017 13:19;11
13.05.2017 13:21;11
13.05.2017 13:23;11
13.05.2017 13:25;11
13.05.2017 13:27;11
13.05.2017 13:29;11
13.05.2017 13:31;11
13.05.2017 13:33;11
13.05.2017 13:35;11
13.05.2017 13:37;11
13.05.2017 13:39;11
13.05.2017 13:41;10
13.05.2017 13:43;10
13.05.2017 13:44;10
13.05.2017 13:46;9
13.05.2017 13:48;10
13.05.2017 13:50;10
13.05.2017 13:52;10
13.05.2017 13:54;12
13.05.2017 13:57;13
13.05.2017 13:59;14
13.05.2017 14:01;14
13.05.2017 14:03;15
13.05.2017 14:05;13
13.05.2017 14:07;13
13.05.2017 14:09;13
13.05.2017 14:11;11
13.05.2017 14:12;11
13.05.2017 14:18;10
13.05.2017 14:25;6
13.05.2017 14:27;8
13.05.2017 14:29;9
13.05.2017 14:31;10
13.05.2017 14:33;11
13.05.2017 14:35;11
13.05.2017 14:37;11
13.05.2017 14:38;12
13.05.2017 14:40;12
13.05.2017 14:42;12
13.05.2017 14:44;13
13.05.2017 14:46;12
13.05.2017 14:48;11
13.05.2017 14:50;12
13.05.2017 14:52;12
13.05.2017 14:54;12
13.05.2017 14:56;12
13.05.2017 14:58;10
13.05.2017 15:00;11
13.05.2017 15:01;11
13.05.2017 15:03;9
13.05.2017 15:05;11
13.05.2017 15:07;10
13.05.2017 15:09;9
13.05.2017 15:11;10
13.05.2017 15:13;10
13.05.2017 15:15;10
13.05.2017 15:17;10
13.05.2017 15:18;10
13.05.2017 15:20;9
13.05.2017 15:23;11
13.05.2017 15:25;12
13.05.2017 15:27;12
13.05.2017 15:29;10
13.05.2017 15:31;12
13.05.2017 15:33;12
13.05.2017 15:35;13
13.05.2017 15:37;13
13.05.2017 15:39;13
13.05.2017 15:40;13
13.05.2017 15:42;14
13.05.2017 15:44;14
13.05.2017 15:46;14
13.05.2017 15:48;14
13.05.2017 15:50;14
13.05.2017 15:52;13
13.05.2017 15:54;12
13.05.2017 15:56;12
13.05.2017 15:58;13
13.05.2017 16:00;13
13.05.2017 16:02;13
13.05.2017 16:04;11
13.05.2017 16:06;10
13.05.2017 16:08;11
13.05.2017 16:09;10
13.05.2017 16:11;11
13.05.2017 16:13;11
13.05.2017 16:15;12
13.05.2017 16:17;12
13.05.2017 16:19;13
13.05.2017 16:21;13
13.05.2017 16:23;14
13.05.2017 16:25;13
13.05.2017 16:27;14
13.05.2017 16:29;14
13.05.2017 16:31;14
13.05.2017 16:33;14
13.05.2017 16:35;15
13.05.2017 16:37;15
13.05.2017 16:38;14
13.05.2017 16:40;14
13.05.2017 16:42;14
13.05.2017 16:44;14
13.05.2017 16:46;15
13.05.2017 16:48;15
13.05.2017 16:50;15
13.05.2017 16:52;15
13.05.2017 16:54;15
13.05.2017 16:55;15
13.05.2017 16:57;13
13.05.2017 16:59;13
13.05.2017 17:01;12
13.05.2017 17:03;12
13.05.2017 17:05;11
13.05.2017 17:07;11
13.05.2017 17:09;13
13.05.2017 17:11;13
13.05.2017 17:13;12
13.05.2017 17:15;12
13.05.2017 17:16;12
13.05.2017 17:19;12
13.05.2017 17:21;13
13.05.2017 17:23;13
13.05.2017 17:25;12
13.05.2017 17:27;13
13.05.2017 17:29;13
13.05.2017 17:31;12
13.05.2017 17:33;12
13.05.2017 17:34;12
13.05.2017 17:36;13
13.05.2017 17:38;13
13.05.2017 17:40;12
13.05.2017 17:42;12
13.05.2017 17:44;12
13.05.2017 17:46;12
13.05.2017 17:48;12
13.05.2017 17:50;12
13.05.2017 17:52;12
13.05.2017 17:54;12
13.05.2017 17:56;12
13.05.2017 17:58;12
13.05.2017 18:01;13
13.05.2017 18:03;13
13.05.2017 18:05;13
13.05.2017 18:07;13
13.05.2017 18:09;14
13.05.2017 18:11;14
13.05.2017 18:13;15
13.05.2017 18:15;15
13.05.2017 18:17;14
13.05.2017 18:19;13
13.05.2017 18:21;14
13.05.2017 18:23;14
13.05.2017 18:25;14
13.05.2017 18:27;15
13.05.2017 18:29;13
13.05.2017 18:31;14
13.05.2017 18:33;13
13.05.2017 18:35;12
13.05.2017 18:37;13
13.05.2017 18:39;13
13.05.2017 18:42;15
13.05.2017 18:44;15
13.05.2017 18:46;16
13.05.2017 18:48;15
13.05.2017 18:50;15
13.05.2017 18:52;15
13.05.2017 18:54;16
13.05.2017 18:56;16
13.05.2017 18:59;17
13.05.2017 19:01;17
13.05.2017 19:03;15
13.05.2017 19:05;15
13.05.2017 19:07;15
13.05.2017 19:09;15
13.05.2017 19:11;15
13.05.2017 19:13;16
13.05.2017 19:16;13
13.05.2017 19:17;13
13.05.2017 19:19;13
13.05.2017 19:22;14
13.05.2017 19:24;15
13.05.2017 19:25;15
13.05.2017 19:27;15
13.05.2017 19:29;14
13.05.2017 19:31;13
13.05.2017 19:33;14
13.05.2017 19:35;13
13.05.2017 19:37;13
13.05.2017 19:39;13
13.05.2017 19:41;14
13.05.2017 19:43;13
13.05.2017 19:45;13
13.05.2017 19:47;13
13.05.2017 19:49;13
13.05.2017 19:51;13
13.05.2017 19:52;13
13.05.2017 19:55;14
13.05.2017 19:57;15
13.05.2017 19:59;15
13.05.2017 20:01;14
13.05.2017 20:03;14
13.05.2017 20:04;14
13.05.2017 20:06;14
13.05.2017 20:08;15
13.05.2017 20:10;14
13.05.2017 20:13;16
13.05.2017 20:15;15
13.05.2017 20:17;14
13.05.2017 20:19;13
13.05.2017 20:21;14
13.05.2017 20:23;15
13.05.2017 20:25;16
13.05.2017 20:27;16
13.05.2017 20:29;18
13.05.2017 20:31;17
13.05.2017 20:33;17
13.05.2017 20:35;16
13.05.2017 20:37;16
13.05.2017 20:39;15
13.05.2017 20:41;15
13.05.2017 20:43;16
13.05.2017 20:45;16
13.05.2017 20:47;16
13.05.2017 20:49;16
13.05.2017 20:51;16
13.05.2017 20:54;18
13.05.2017 20:56;17
13.05.2017 20:58;17
13.05.2017 21:00;17
13.05.2017 21:02;17
13.05.2017 21:04;17
13.05.2017 21:06;17
13.05.2017 21:08;16
13.05.2017 21:10;16
13.05.2017 21:12;17
13.05.2017 21:14;16
13.05.2017 21:17;17
13.05.2017 21:19;17
13.05.2017 21:21;17
13.05.2017 21:22;17
13.05.2017 21:24;17
13.05.2017 21:26;17
13.05.2017 21:28;17
13.05.2017 21:31;15
13.05.2017 21:33;16
13.05.2017 21:35;18
13.05.2017 21:37;17
13.05.2017 21:39;17
13.05.2017 21:41;16
13.05.2017 21:43;16
13.05.2017 21:45;16
13.05.2017 21:48;17
13.05.2017 21:50;17
13.05.2017 21:52;17
13.05.2017 21:53;17
13.05.2017 21:55;17
13.05.2017 21:57;17
13.05.2017 21:59;17
13.05.2017 22:01;17
13.05.2017 22:04;17
13.05.2017 22:06;17
13.05.2017 22:08;17
13.05.2017 22:10;17
13.05.2017 22:12;17
13.05.2017 22:14;16
13.05.2017 22:16;16
13.05.2017 22:18;16
13.05.2017 22:20;17
13.05.2017 22:22;17
13.05.2017 22:24;17
13.05.2017 22:26;16
13.05.2017 22:28;16
13.05.2017 22:30;17
13.05.2017 22:32;17
13.05.2017 22:34;17
13.05.2017 22:36;16
13.05.2017 22:38;16
13.05.2017 22:40;16
13.05.2017 22:42;17
13.05.2017 22:44;15
13.05.2017 22:46;16
13.05.2017 22:48;14
13.05.2017 22:50;14
13.05.2017 22:53;16
13.05.2017 22:55;16
13.05.2017 22:57;16
13.05.2017 22:59;16
13.05.2017 23:01;15
13.05.2017 23:02;15
13.05.2017 23:04;15
13.05.2017 23:07;16
13.05.2017 23:08;16
13.05.2017 23:10;16
13.05.2017 23:12;16
13.05.2017 23:14;14
13.05.2017 23:16;15
13.05.2017 23:18;15
13.05.2017 23:20;16
13.05.2017 23:22;14
13.05.2017 23:24;13
13.05.2017 23:26;15
13.05.2017 23:27;14
13.05.2017 23:29;14
13.05.2017 23:31;13
13.05.2017 23:33;12
13.05.2017 23:35;12
13.05.2017 23:37;12
13.05.2017 23:39;12
13.05.2017 23:40;10
13.05.2017 23:43;13
13.05.2017 23:45;14
13.05.2017 23:47;14
13.05.2017 23:48;14
13.05.2017 23:50;14
13.05.2017 23:52;13
13.05.2017 23:54;13
13.05.2017 23:56;12
13.05.2017 23:57;12
13.05.2017 23:59;12
14.05.2017 00:01;12
14.05.2017 00:03;12
14.05.2017 00:05;12
14.05.2017 00:07;12
14.05.2017 00:08;12
14.05.2017 00:10;12
14.05.2017 00:12;13
14.05.2017 00:14;14
14.05.2017 00:16;14
14.05.2017 00:18;14
14.05.2017 00:20;15
14.05.2017 00:22;15
14.05.2017 00:24;14
14.05.2017 00:26;14
14.05.2017 00:27;14
14.05.2017 00:29;14
14.05.2017 00:31;14
14.05.2017 00:33;14
14.05.2017 00:35;14
14.05.2017 00:36;14
14.05.2017 00:38;14
14.05.2017 00:40;14
14.05.2017 00:42;14
14.05.2017 00:44;14
14.05.2017 00:45;14
14.05.2017 00:47;12
14.05.2017 00:49;12
14.05.2017 00:51;12
14.05.2017 00:53;12
14.05.2017 00:55;13
14.05.2017 00:57;13
14.05.2017 00:58;13
14.05.2017 01:00;13
14.05.2017 01:02;13
14.05.2017 01:04;13
14.05.2017 01:05;13
14.05.2017 01:07;13
14.05.2017 01:09;13
14.05.2017 01:11;13
14.05.2017 01:13;14
14.05.2017 01:15;14
14.05.2017 01:16;14
14.05.2017 01:18;15
14.05.2017 01:20;14
14.05.2017 01:22;14
14.05.2017 01:24;14
14.05.2017 01:26;14
14.05.2017 01:27;14
14.05.2017 01:29;14
14.05.2017 01:31;14
14.05.2017 01:33;13
14.05.2017 01:35;13
14.05.2017 01:37;13
14.05.2017 01:39;13
14.05.2017 01:40;13
14.05.2017 01:42;13
14.05.2017 01:44;13
14.05.2017 01:46;12
14.05.2017 01:48;13
14.05.2017 01:50;13
14.05.2017 01:51;13
14.05.2017 01:53;13
14.05.2017 01:55;14
14.05.2017 01:57;14
14.05.2017 01:59;14
14.05.2017 02:00;13
14.05.2017 02:02;12
14.05.2017 02:04;12
14.05.2017 02:06;14
14.05.2017 02:08;14
14.05.2017 02:09;14
14.05.2017 02:11;14
14.05.2017 02:13;14
14.05.2017 02:15;14
14.05.2017 02:17;12
14.05.2017 02:19;12
14.05.2017 02:20;12
14.05.2017 02:22;11
14.05.2017 02:24;12
14.05.2017 02:26;13
14.05.2017 02:28;13
14.05.2017 02:30;15
14.05.2017 02:32;14
14.05.2017 02:33;14
14.05.2017 02:35;14
14.05.2017 02:37;13
14.05.2017 02:39;13
14.05.2017 02:41;12
14.05.2017 02:43;11
14.05.2017 02:45;12
14.05.2017 02:47;13
14.05.2017 02:48;14
14.05.2017 02:50;14
14.05.2017 02:52;15
14.05.2017 02:54;16
14.05.2017 02:56;16
14.05.2017 02:58;16
14.05.2017 02:59;15
14.05.2017 03:01;15
14.05.2017 03:03;15
14.05.2017 03:05;15
14.05.2017 03:06;15
14.05.2017 03:08;14
14.05.2017 03:10;14
14.05.2017 03:12;14
14.05.2017 03:13;14
14.05.2017 03:15;15
14.05.2017 03:17;14
14.05.2017 03:19;14
14.05.2017 03:21;14
14.05.2017 03:23;14
14.05.2017 03:25;14
14.05.2017 03:27;15
14.05.2017 03:29;14
14.05.2017 03:30;14
14.05.2017 03:32;14
14.05.2017 03:34;14
14.05.2017 03:36;15
14.05.2017 03:38;14
14.05.2017 03:40;15
14.05.2017 03:42;15
14.05.2017 03:44;15
14.05.2017 03:46;15
14.05.2017 03:48;15
14.05.2017 03:50;15
14.05.2017 03:51;15
14.05.2017 03:53;15
14.05.2017 03:55;15
14.05.2017 03:57;16
14.05.2017 03:59;16
14.05.2017 04:01;16
14.05.2017 04:03;15
14.05.2017 04:05;15
14.05.2017 04:07;15
14.05.2017 04:09;15
14.05.2017 04:10;14
14.05.2017 04:12;14
14.05.2017 04:14;13
14.05.2017 04:16;13
14.05.2017 04:18;13
14.05.2017 04:20;12
14.05.2017 04:22;12
14.05.2017 04:24;14
14.05.2017 04:26;13
14.05.2017 04:28;15
14.05.2017 04:30;15
14.05.2017 04:32;15
14.05.2017 04:34;16
14.05.2017 04:36;16
14.05.2017 04:38;17
14.05.2017 04:40;16
14.05.2017 04:42;15
14.05.2017 04:44;14
14.05.2017 04:46;16
14.05.2017 04:48;15
14.05.2017 04:50;16
14.05.2017 04:52;15
14.05.2017 04:54;15
14.05.2017 04:56;16
14.05.2017 04:58;15
14.05.2017 04:59;14
14.05.2017 05:01;14
14.05.2017 05:03;15
14.05.2017 05:05;15
14.05.2017 05:07;15
14.05.2017 05:09;16
14.05.2017 05:12;14
14.05.2017 05:16;13
14.05.2017 05:18;12
14.05.2017 05:20;13
14.05.2017 05:22;13
14.05.2017 05:24;13
14.05.2017 05:26;14
14.05.2017 05:28;13
14.05.2017 05:30;13
14.05.2017 05:32;13
14.05.2017 05:35;14
14.05.2017 05:37;14
14.05.2017 05:39;16
14.05.2017 05:42;16
14.05.2017 05:44;16
14.05.2017 05:46;16
14.05.2017 05:49;16
14.05.2017 05:51;15
14.05.2017 05:53;15
14.05.2017 05:55;15
14.05.2017 05:57;15
14.05.2017 05:59;15
14.05.2017 06:01;15
14.05.2017 06:03;15
14.05.2017 06:05;15
14.05.2017 06:07;15
14.05.2017 06:10;15
14.05.2017 06:13;15
14.05.2017 06:16;17
14.05.2017 06:18;16
14.05.2017 06:21;14
14.05.2017 06:23;14
14.05.2017 06:26;14
14.05.2017 06:28;15
14.05.2017 06:30;15
14.05.2017 06:32;15
14.05.2017 06:34;15
14.05.2017 06:37;15
14.05.2017 06:39;14
14.05.2017 06:41;14
14.05.2017 06:43;15
14.05.2017 06:45;14
14.05.2017 06:46;14
14.05.2017 06:48;14
14.05.2017 06:50;14
14.05.2017 06:52;14
14.05.2017 06:54;14
14.05.2017 06:56;14
14.05.2017 06:58;13
14.05.2017 07:00;13
14.05.2017 07:02;14
14.05.2017 07:04;13
14.05.2017 07:06;15
14.05.2017 07:08;15
14.05.2017 07:10;15
14.05.2017 07:12;15
14.05.2017 07:14;16
14.05.2017 07:16;16
14.05.2017 07:17;15
14.05.2017 07:19;17
14.05.2017 07:21;16
14.05.2017 07:23;17
14.05.2017 07:25;16
14.05.2017 07:27;15
14.05.2017 07:29;15
14.05.2017 07:31;15
14.05.2017 07:33;15
14.05.2017 07:35;16
14.05.2017 07:36;16
14.05.2017 07:38;15
14.05.2017 07:40;14
14.05.2017 07:42;15
14.05.2017 07:44;14
14.05.2017 07:46;15
14.05.2017 07:48;14
14.05.2017 07:50;16
14.05.2017 07:52;15
14.05.2017 07:54;14
14.05.2017 07:55;14
14.05.2017 07:57;14
14.05.2017 07:59;14
14.05.2017 08:01;16
14.05.2017 08:03;15
14.05.2017 08:05;15
14.05.2017 08:06;15
14.05.2017 08:08;16
14.05.2017 08:10;15
14.05.2017 08:12;16
14.05.2017 08:14;15
14.05.2017 08:16;15
14.05.2017 08:18;13
14.05.2017 08:19;14
14.05.2017 08:21;14
14.05.2017 08:23;14
14.05.2017 08:25;14
14.05.2017 08:26;13
14.05.2017 08:28;12
14.05.2017 08:30;12
14.05.2017 08:32;11
14.05.2017 08:34;11
14.05.2017 08:35;11
14.05.2017 08:37;11
14.05.2017 08:39;11
14.05.2017 08:41;11
14.05.2017 08:42;10
14.05.2017 08:44;11
14.05.2017 08:46;13
14.05.2017 08:48;12
14.05.2017 08:50;15
14.05.2017 08:52;14
14.05.2017 08:54;14
14.05.2017 08:56;13
14.05.2017 08:58;14
14.05.2017 09:00;15
14.05.2017 09:05;14
14.05.2017 09:07;12
14.05.2017 09:08;10
14.05.2017 09:10;12
14.05.2017 09:12;13
14.05.2017 09:14;15
14.05.2017 09:16;15
14.05.2017 09:18;12
14.05.2017 09:20;12
14.05.2017 09:21;12
14.05.2017 09:23;12
14.05.2017 09:25;12
14.05.2017 09:27;10
14.05.2017 09:29;10
14.05.2017 09:31;10
14.05.2017 09:33;9
14.05.2017 09:35;11
14.05.2017 09:36;11
14.05.2017 09:38;11
14.05.2017 09:40;11
14.05.2017 09:42;12
14.05.2017 09:44;12
14.05.2017 09:46;12
14.05.2017 09:48;11
14.05.2017 09:50;12
14.05.2017 09:51;12
14.05.2017 09:53;13
14.05.2017 09:55;13
14.05.2017 09:57;11
14.05.2017 09:59;10
14.05.2017 10:01;10
14.05.2017 10:03;10
14.05.2017 10:04;10
14.05.2017 10:06;9
14.05.2017 10:08;10
14.05.2017 10:10;9
14.05.2017 10:12;9
14.05.2017 10:14;10
14.05.2017 10:16;11
14.05.2017 10:18;10
14.05.2017 10:20;10
14.05.2017 10:22;10
14.05.2017 10:24;11
14.05.2017 10:26;10
14.05.2017 10:28;10
14.05.2017 10:29;10
14.05.2017 10:31;11
14.05.2017 10:33;10
14.05.2017 10:35;11
14.05.2017 10:37;11
14.05.2017 10:39;11
14.05.2017 10:41;11
14.05.2017 10:43;11
14.05.2017 10:45;11
14.05.2017 10:47;11
14.05.2017 10:49;12
14.05.2017 10:51;13
14.05.2017 10:53;12
14.05.2017 10:54;12
14.05.2017 10:57;13
14.05.2017 10:58;13
14.05.2017 11:00;13
14.05.2017 11:02;13
14.05.2017 11:04;13
14.05.2017 11:06;13
14.05.2017 11:08;13
14.05.2017 11:09;11
14.05.2017 11:11;11
14.05.2017 11:13;8
14.05.2017 11:15;8
14.05.2017 11:17;8
14.05.2017 11:19;9
14.05.2017 11:21;9
14.05.2017 11:23;8
14.05.2017 11:24;8
14.05.2017 11:26;8
14.05.2017 11:28;8
14.05.2017 11:30;7
14.05.2017 11:32;7
14.05.2017 11:34;8
14.05.2017 11:36;8
14.05.2017 11:38;8
14.05.2017 11:39;7
14.05.2017 11:41;7
14.05.2017 11:43;8
14.05.2017 11:45;9
14.05.2017 11:47;8
14.05.2017 11:49;8
14.05.2017 11:51;8
14.05.2017 11:53;11
14.05.2017 11:55;11
14.05.2017 11:57;10
14.05.2017 11:59;10
14.05.2017 12:00;11
14.05.2017 12:02;10
14.05.2017 12:04;10
14.05.2017 12:06;10
14.05.2017 12:08;10
14.05.2017 12:10;10
14.05.2017 12:11;10
14.05.2017 12:13;9
14.05.2017 12:15;9
14.05.2017 12:17;8
14.05.2017 12:19;10
14.05.2017 12:21;9
14.05.2017 12:23;10
14.05.2017 12:24;10
14.05.2017 12:26;11
14.05.2017 12:28;10
14.05.2017 12:30;9
14.05.2017 12:32;9
14.05.2017 12:34;9
14.05.2017 12:36;10
14.05.2017 12:38;10
14.05.2017 12:40;10
14.05.2017 12:42;12
14.05.2017 12:44;12
14.05.2017 12:46;12
14.05.2017 12:48;13
14.05.2017 12:50;13
14.05.2017 12:52;13
14.05.2017 12:53;12
14.05.2017 12:56;12
14.05.2017 12:58;13
14.05.2017 13:00;12
14.05.2017 13:02;12
14.05.2017 13:04;10
14.05.2017 13:06;9
14.05.2017 13:08;8
14.05.2017 13:10;8
14.05.2017 13:13;8
14.05.2017 13:14;8
14.05.2017 13:16;8
14.05.2017 13:18;9
14.05.2017 13:20;11
14.05.2017 13:22;13
14.05.2017 13:24;12
14.05.2017 13:26;12
14.05.2017 13:28;12
14.05.2017 13:30;13
14.05.2017 13:32;12
14.05.2017 13:35;11
14.05.2017 13:36;12
14.05.2017 13:38;13
14.05.2017 13:40;13
14.05.2017 13:43;12
14.05.2017 13:45;11
14.05.2017 13:46;11
14.05.2017 13:48;10
14.05.2017 13:50;10
14.05.2017 13:53;13
14.05.2017 13:55;13
14.05.2017 13:57;13
14.05.2017 13:58;12
14.05.2017 14:00;11
14.05.2017 14:02;11
14.05.2017 14:05;11
14.05.2017 14:07;12
14.05.2017 14:09;13
14.05.2017 14:11;14
14.05.2017 14:13;14
14.05.2017 14:15;13
14.05.2017 14:17;12
14.05.2017 18:20;9
14.05.2017 18:22;11
14.05.2017 18:24;12
14.05.2017 18:26;12
14.05.2017 18:28;12
14.05.2017 18:31;13
14.05.2017 18:33;13
14.05.2017 18:35;13
14.05.2017 18:37;14
14.05.2017 18:39;14
14.05.2017 18:41;13
14.05.2017 18:43;13
14.05.2017 18:46;10
14.05.2017 18:48;12
14.05.2017 18:50;13
14.05.2017 18:52;13
14.05.2017 18:54;15
14.05.2017 18:56;13
14.05.2017 18:58;12
14.05.2017 19:00;13
14.05.2017 19:02;13
14.05.2017 19:04;13
14.05.2017 19:06;13
14.05.2017 19:08;13
14.05.2017 19:10;12
14.05.2017 19:12;12
14.05.2017 19:15;12
14.05.2017 19:17;12
14.05.2017 19:19;12
14.05.2017 19:21;12
14.05.2017 19:23;13
14.05.2017 19:25;11
14.05.2017 19:27;11
14.05.2017 19:30;12
14.05.2017 19:31;11
14.05.2017 19:33;10
14.05.2017 19:35;11
14.05.2017 19:38;13
14.05.2017 19:40;12
14.05.2017 19:42;10
14.05.2017 19:44;12
14.05.2017 19:46;13
14.05.2017 19:48;11
14.05.2017 19:51;13
14.05.2017 19:53;13
14.05.2017 19:55;13
14.05.2017 19:57;13
14.05.2017 19:59;10
14.05.2017 20:01;9
14.05.2017 20:04;11
14.05.2017 20:06;11
14.05.2017 20:08;12
14.05.2017 20:10;13
14.05.2017 20:13;15
14.05.2017 20:15;16
14.05.2017 20:16;16
14.05.2017 20:18;15
14.05.2017 20:20;14
14.05.2017 20:23;15
14.05.2017 20:25;13
14.05.2017 20:27;13
14.05.2017 20:29;12
14.05.2017 20:31;13
14.05.2017 20:33;14
14.05.2017 20:35;13
14.05.2017 20:38;15
14.05.2017 20:40;15
14.05.2017 20:42;15
14.05.2017 20:44;15
14.05.2017 20:46;16
14.05.2017 20:48;15
14.05.2017 20:50;15
14.05.2017 20:52;15
14.05.2017 20:54;15
14.05.2017 20:56;14
14.05.2017 20:58;14
14.05.2017 21:00;16
14.05.2017 21:02;15
14.05.2017 21:05;16
14.05.2017 21:07;17
14.05.2017 21:09;18
14.05.2017 21:11;18
14.05.2017 21:13;17
14.05.2017 21:15;17
14.05.2017 21:17;17
14.05.2017 21:19;17
14.05.2017 21:21;15
14.05.2017 21:23;15
14.05.2017 21:25;14
14.05.2017 21:27;14
14.05.2017 21:29;14
14.05.2017 21:31;15
14.05.2017 21:33;15
14.05.2017 21:35;14
14.05.2017 21:38;16
14.05.2017 21:40;16
14.05.2017 21:42;15
14.05.2017 21:43;15
14.05.2017 21:46;15
14.05.2017 21:48;15
14.05.2017 21:50;16
14.05.2017 21:52;17
14.05.2017 21:53;15
14.05.2017 21:55;16
14.05.2017 21:58;14
14.05.2017 22:00;15
14.05.2017 22:02;16
14.05.2017 22:04;16
14.05.2017 22:06;17
14.05.2017 22:08;18
14.05.2017 22:10;17
14.05.2017 22:12;17
14.05.2017 22:14;16
14.05.2017 22:16;17
14.05.2017 22:18;16
14.05.2017 22:20;17
14.05.2017 22:22;17
14.05.2017 22:24;17
14.05.2017 22:26;17
14.05.2017 22:28;17
14.05.2017 22:30;18
14.05.2017 22:32;19
14.05.2017 22:33;18
14.05.2017 22:36;18
14.05.2017 22:38;18
14.05.2017 22:40;17
14.05.2017 22:41;16
14.05.2017 22:43;15
14.05.2017 22:45;16
14.05.2017 22:48;17
14.05.2017 22:50;17
14.05.2017 22:52;17
14.05.2017 22:54;18
14.05.2017 22:56;16
14.05.2017 22:58;16
14.05.2017 23:01;17
14.05.2017 23:03;19
14.05.2017 23:05;17
14.05.2017 23:08;15
14.05.2017 23:10;16
14.05.2017 23:12;16
14.05.2017 23:14;16
14.05.2017 23:16;17
14.05.2017 23:18;18
14.05.2017 23:20;17
14.05.2017 23:22;17
14.05.2017 23:23;17
14.05.2017 23:26;16
14.05.2017 23:28;16
14.05.2017 23:30;16
14.05.2017 23:32;16
14.05.2017 23:34;16
14.05.2017 23:36;15
14.05.2017 23:38;14
14.05.2017 23:39;14
14.05.2017 23:41;14
14.05.2017 23:43;12
14.05.2017 23:45;12
14.05.2017 23:48;13
14.05.2017 23:50;13
14.05.2017 23:52;13
14.05.2017 23:54;12
14.05.2017 23:57;13
14.05.2017 23:58;13
15.05.2017 00:01;13
15.05.2017 00:03;12
15.05.2017 00:05;12
15.05.2017 00:07;12
15.05.2017 00:09;12
15.05.2017 00:12;13
15.05.2017 00:14;11
15.05.2017 00:15;12
15.05.2017 00:18;13
15.05.2017 00:20;12
15.05.2017 00:21;14
15.05.2017 00:23;13
15.05.2017 00:25;13
15.05.2017 00:27;13
15.05.2017 00:29;14
15.05.2017 00:31;14
15.05.2017 00:32;14
15.05.2017 00:34;14
15.05.2017 00:36;14
15.05.2017 00:38;14
15.05.2017 00:39;14
15.05.2017 00:41;13
15.05.2017 00:43;13
15.05.2017 00:45;13
15.05.2017 00:47;12
15.05.2017 00:48;11
15.05.2017 00:50;10
15.05.2017 00:52;9
15.05.2017 00:54;10
15.05.2017 00:57;12
15.05.2017 00:59;12
15.05.2017 01:01;12
15.05.2017 01:02;12
15.05.2017 01:04;12
15.05.2017 01:06;12
15.05.2017 01:08;12
15.05.2017 01:09;12
15.05.2017 01:11;12
15.05.2017 01:13;13
15.05.2017 01:15;13
15.05.2017 01:18;14
15.05.2017 01:19;14
15.05.2017 01:21;14
15.05.2017 01:23;14
15.05.2017 01:25;14
15.05.2017 01:27;15
15.05.2017 01:29;15
15.05.2017 01:31;15
15.05.2017 01:32;15
15.05.2017 01:34;15
15.05.2017 01:36;15
15.05.2017 01:38;15
15.05.2017 01:40;15
15.05.2017 01:42;14
15.05.2017 01:44;14
15.05.2017 01:46;14
15.05.2017 01:48;13
15.05.2017 01:50;13
15.05.2017 01:52;14
15.05.2017 01:55;14
15.05.2017 01:57;14
15.05.2017 01:59;14
15.05.2017 02:01;14
15.05.2017 02:03;15
15.05.2017 02:04;14
15.05.2017 02:06;15
15.05.2017 02:08;15
15.05.2017 02:10;15
15.05.2017 02:12;15
15.05.2017 02:15;15
15.05.2017 02:17;15
15.05.2017 02:19;15
15.05.2017 02:21;15
15.05.2017 02:23;15
15.05.2017 02:24;13
15.05.2017 02:26;12
15.05.2017 02:29;12
15.05.2017 02:31;11
15.05.2017 02:33;12
15.05.2017 02:36;13
15.05.2017 02:38;15
15.05.2017 02:40;15
15.05.2017 02:42;14
15.05.2017 02:43;14
15.05.2017 02:45;13
15.05.2017 02:47;11
15.05.2017 02:49;11
15.05.2017 02:51;12
15.05.2017 02:53;12
15.05.2017 02:55;12
15.05.2017 02:57;12
15.05.2017 02:59;14
15.05.2017 03:01;14
15.05.2017 03:03;15
15.05.2017 03:05;15
15.05.2017 03:07;14
15.05.2017 03:08;14
15.05.2017 03:10;14
15.05.2017 03:12;15
15.05.2017 03:14;15
15.05.2017 03:16;14
15.05.2017 03:18;14
15.05.2017 03:20;14
15.05.2017 03:22;14
15.05.2017 03:24;14
15.05.2017 03:26;14
15.05.2017 03:27;14
15.05.2017 03:29;14
15.05.2017 03:31;14
15.05.2017 03:33;14
15.05.2017 03:35;14
15.05.2017 03:38;14
15.05.2017 03:40;15
15.05.2017 03:42;15
15.05.2017 03:44;14
15.05.2017 03:46;14
15.05.2017 03:48;14
15.05.2017 03:50;14
15.05.2017 03:52;14
15.05.2017 03:54;13
15.05.2017 03:56;12
15.05.2017 03:58;12
15.05.2017 04:01;14
15.05.2017 04:03;12
15.05.2017 04:05;12
15.05.2017 04:07;12
15.05.2017 04:09;13
15.05.2017 04:11;15
15.05.2017 04:13;15
15.05.2017 04:15;15
15.05.2017 04:17;15
15.05.2017 04:18;14
15.05.2017 04:20;14
15.05.2017 04:22;13
15.05.2017 04:25;13
15.05.2017 04:26;13
15.05.2017 04:29;14
15.05.2017 04:30;14
15.05.2017 04:32;14
15.05.2017 04:35;16
15.05.2017 04:37;16
15.05.2017 04:38;15
15.05.2017 04:40;15
15.05.2017 04:42;15
15.05.2017 04:44;16
15.05.2017 04:46;17
15.05.2017 04:48;15
15.05.2017 04:51;16
15.05.2017 04:53;16
15.05.2017 04:54;16
15.05.2017 04:56;18
15.05.2017 04:58;16
15.05.2017 05:00;16
15.05.2017 05:02;14
15.05.2017 05:04;14
15.05.2017 05:07;14
15.05.2017 05:09;15
15.05.2017 05:11;16
15.05.2017 05:13;15
15.05.2017 05:15;15
15.05.2017 05:17;15
15.05.2017 05:19;15
15.05.2017 05:20;15
15.05.2017 05:22;16
15.05.2017 05:24;16
15.05.2017 05:26;16
15.05.2017 05:28;15
15.05.2017 05:30;16
15.05.2017 05:32;16
15.05.2017 05:34;15
15.05.2017 05:36;13
15.05.2017 05:38;13
15.05.2017 05:40;13
15.05.2017 05:43;13
15.05.2017 05:46;13
15.05.2017 05:49;15
15.05.2017 05:52;16
15.05.2017 05:54;15
15.05.2017 05:57;14
15.05.2017 06:00;16
15.05.2017 06:02;16
15.05.2017 06:05;16
15.05.2017 06:07;16
15.05.2017 06:09;16
15.05.2017 06:12;17
15.05.2017 06:14;17
15.05.2017 06:16;17
15.05.2017 06:18;15
15.05.2017 06:20;16
15.05.2017 06:22;16
15.05.2017 06:25;16
15.05.2017 06:28;16
15.05.2017 06:30;17
15.05.2017 06:33;16
15.05.2017 06:35;16
15.05.2017 06:37;16
15.05.2017 06:39;15
15.05.2017 06:41;16
15.05.2017 06:43;16
15.05.2017 06:45;15
15.05.2017 06:47;16
15.05.2017 06:49;16
15.05.2017 06:51;14
15.05.2017 06:53;13
15.05.2017 06:55;13
15.05.2017 06:57;13
15.05.2017 06:59;13
15.05.2017 07:00;14
15.05.2017 07:03;16
15.05.2017 07:05;16
15.05.2017 07:07;16
15.05.2017 07:09;15
15.05.2017 07:11;15
15.05.2017 07:13;15
15.05.2017 07:15;14
15.05.2017 07:17;15
15.05.2017 07:18;15
15.05.2017 07:20;15
15.05.2017 07:22;15
15.05.2017 07:24;14
15.05.2017 07:26;14
15.05.2017 07:29;15
15.05.2017 07:31;16
15.05.2017 07:33;16
15.05.2017 07:35;17
15.05.2017 07:37;16
15.05.2017 07:39;17
15.05.2017 07:41;18
15.05.2017 07:43;18
15.05.2017 07:45;18
15.05.2017 07:47;17
15.05.2017 07:48;15
15.05.2017 07:50;15
15.05.2017 07:53;16
15.05.2017 07:54;15
15.05.2017 07:56;12
15.05.2017 07:58;11
15.05.2017 08:00;12
15.05.2017 08:02;13
15.05.2017 08:04;13
15.05.2017 08:06;12
15.05.2017 08:08;13
15.05.2017 08:10;13
15.05.2017 08:12;13
15.05.2017 08:14;13
15.05.2017 08:16;12
15.05.2017 08:17;12
15.05.2017 08:19;13
15.05.2017 08:21;13
15.05.2017 08:23;13
15.05.2017 08:26;14
15.05.2017 08:28;13
15.05.2017 08:30;14
15.05.2017 08:32;14
15.05.2017 08:34;14
15.05.2017 08:36;14
15.05.2017 08:38;14
15.05.2017 08:40;14
15.05.2017 08:42;14
15.05.2017 08:45;12
15.05.2017 08:47;14
15.05.2017 08:49;14
15.05.2017 08:52;14
15.05.2017 08:55;15
15.05.2017 08:57;15
15.05.2017 08:59;15
15.05.2017 09:01;13
15.05.2017 09:03;14
15.05.2017 09:05;14
15.05.2017 09:07;14
15.05.2017 09:09;14
15.05.2017 09:11;15
15.05.2017 09:13;15
15.05.2017 09:15;16
15.05.2017 09:17;15
15.05.2017 09:19;15
15.05.2017 09:22;16
15.05.2017 09:24;16
15.05.2017 09:26;16
15.05.2017 09:28;16
15.05.2017 09:30;16
15.05.2017 09:32;16
15.05.2017 09:34;16
15.05.2017 09:36;17
15.05.2017 09:37;17
15.05.2017 09:40;18
15.05.2017 09:41;16
15.05.2017 09:44;16
15.05.2017 09:46;16
15.05.2017 09:48;15
15.05.2017 09:50;15
15.05.2017 09:52;15
15.05.2017 09:54;15
15.05.2017 09:55;15
15.05.2017 10:09;15
15.05.2017 10:11;14
15.05.2017 10:12;14
15.05.2017 10:15;16
15.05.2017 10:17;15
15.05.2017 10:19;15
15.05.2017 10:21;15
15.05.2017 10:23;14
15.05.2017 10:25;15
15.05.2017 10:27;16
15.05.2017 10:29;17
15.05.2017 10:31;17
15.05.2017 10:33;16
15.05.2017 10:35;15
15.05.2017 10:37;14
15.05.2017 10:39;14
15.05.2017 10:41;14
15.05.2017 10:43;13
15.05.2017 10:45;13
15.05.2017 10:47;12
15.05.2017 10:49;12
15.05.2017 10:51;13
15.05.2017 10:53;13
15.05.2017 10:55;11
15.05.2017 10:57;11
15.05.2017 10:59;12
15.05.2017 11:01;12
15.05.2017 11:03;13
15.05.2017 11:05;12
15.05.2017 11:07;13
15.05.2017 11:09;13
15.05.2017 11:11;12
15.05.2017 11:13;12
15.05.2017 11:15;12
15.05.2017 11:17;12
15.05.2017 11:19;12
15.05.2017 11:21;12
15.05.2017 11:23;11
15.05.2017 11:26;12
15.05.2017 11:29;12
15.05.2017 11:31;11
15.05.2017 11:33;12
15.05.2017 11:36;14
15.05.2017 11:38;11
15.05.2017 11:40;12
15.05.2017 11:42;11
15.05.2017 11:45;13
15.05.2017 11:47;11
15.05.2017 11:49;12
15.05.2017 11:51;12
15.05.2017 11:53;12
15.05.2017 11:55;11
15.05.2017 11:57;11
15.05.2017 11:59;12
15.05.2017 12:01;13
15.05.2017 12:03;13
15.05.2017 12:05;14
15.05.2017 12:06;13
15.05.2017 12:08;13
15.05.2017 12:10;12
15.05.2017 12:12;13
15.05.2017 12:14;12
15.05.2017 12:16;12
15.05.2017 12:18;11
15.05.2017 12:20;11
15.05.2017 12:22;12
15.05.2017 12:24;13
15.05.2017 12:26;13
15.05.2017 12:28;12
15.05.2017 12:30;11
15.05.2017 12:32;12
15.05.2017 12:34;12
15.05.2017 12:36;13
15.05.2017 12:38;13
15.05.2017 12:40;12
15.05.2017 12:42;12
15.05.2017 12:44;12
15.05.2017 12:46;12
15.05.2017 12:48;12
15.05.2017 12:50;12
15.05.2017 12:52;12
15.05.2017 12:54;13
15.05.2017 12:56;14
15.05.2017 12:57;14
15.05.2017 12:59;14
15.05.2017 13:01;13
15.05.2017 13:03;11
15.05.2017 13:06;11
15.05.2017 13:07;12
15.05.2017 13:09;12
15.05.2017 13:12;12
15.05.2017 13:13;12
15.05.2017 13:15;12
15.05.2017 13:17;11
15.05.2017 13:19;11
15.05.2017 13:21;11
15.05.2017 13:23;11
15.05.2017 13:25;11
15.05.2017 13:27;11
15.05.2017 13:29;11
15.05.2017 13:31;10
15.05.2017 13:32;10
15.05.2017 13:34;10
15.05.2017 13:36;11
15.05.2017 13:38;11
15.05.2017 13:40;10
15.05.2017 13:42;10
15.05.2017 13:44;10
15.05.2017 13:46;9
15.05.2017 13:48;11
15.05.2017 13:50;11
15.05.2017 13:52;10
15.05.2017 13:54;11
15.05.2017 13:56;11
15.05.2017 13:58;10
15.05.2017 14:00;9
15.05.2017 14:02;10
15.05.2017 14:04;10
15.05.2017 14:06;9
15.05.2017 14:07;9
15.05.2017 14:09;8
15.05.2017 14:11;9
15.05.2017 14:13;8
15.05.2017 14:15;8
15.05.2017 14:17;11
15.05.2017 14:19;11
15.05.2017 14:21;10
15.05.2017 14:23;10
15.05.2017 14:25;10
15.05.2017 14:27;11
15.05.2017 14:29;11
15.05.2017 14:31;11
15.05.2017 14:33;12
15.05.2017 14:35;12
15.05.2017 14:37;11
15.05.2017 14:39;11
15.05.2017 14:41;11
15.05.2017 14:43;11
15.05.2017 14:45;12
15.05.2017 14:48;13
15.05.2017 14:49;11
15.05.2017 14:51;10
15.05.2017 14:53;10
15.05.2017 14:55;10
15.05.2017 14:57;10
15.05.2017 14:59;9
15.05.2017 15:01;9
15.05.2017 15:03;9
15.05.2017 15:05;8
15.05.2017 15:07;8
15.05.2017 15:09;10
15.05.2017 15:11;10
15.05.2017 15:13;11
15.05.2017 15:15;10
15.05.2017 15:17;10
15.05.2017 15:19;12
15.05.2017 15:21;13
15.05.2017 15:23;13
15.05.2017 15:25;12
15.05.2017 15:27;12
15.05.2017 15:29;12
15.05.2017 15:31;12
15.05.2017 15:33;12
15.05.2017 15:35;10
15.05.2017 15:37;13
15.05.2017 15:39;13
15.05.2017 15:42;14
15.05.2017 15:44;15
15.05.2017 15:46;14
15.05.2017 15:48;14
15.05.2017 15:50;15
15.05.2017 15:52;15
15.05.2017 15:54;15
15.05.2017 15:56;15
15.05.2017 15:58;14
15.05.2017 16:00;15
15.05.2017 16:02;16
15.05.2017 16:04;16
15.05.2017 16:06;15
15.05.2017 16:08;15
15.05.2017 16:10;16
15.05.2017 16:12;16
15.05.2017 16:14;15
15.05.2017 16:16;15
15.05.2017 16:18;16
15.05.2017 16:20;15
15.05.2017 16:22;16
15.05.2017 16:24;16
15.05.2017 16:26;16
15.05.2017 16:28;16
15.05.2017 16:31;13
15.05.2017 16:32;14
15.05.2017 16:34;14
15.05.2017 16:36;14
15.05.2017 16:38;14
15.05.2017 16:40;14
15.05.2017 16:42;14
15.05.2017 16:44;15
15.05.2017 16:46;15
15.05.2017 16:48;15
15.05.2017 16:50;15
15.05.2017 16:52;17
15.05.2017 16:55;18
15.05.2017 16:56;18
15.05.2017 16:58;16
15.05.2017 17:00;15
15.05.2017 17:03;16
15.05.2017 17:05;14
15.05.2017 17:07;15
15.05.2017 17:09;17
15.05.2017 17:11;17
15.05.2017 17:14;16
15.05.2017 17:16;17
15.05.2017 17:18;18
15.05.2017 17:19;16
15.05.2017 17:21;16
15.05.2017 17:23;16
15.05.2017 17:25;16
15.05.2017 17:28;16
15.05.2017 17:30;16
15.05.2017 17:32;16
15.05.2017 17:35;17
15.05.2017 17:37;17
15.05.2017 17:38;16
15.05.2017 17:40;16
15.05.2017 17:42;16
15.05.2017 17:44;16
15.05.2017 17:46;17
15.05.2017 17:48;17
15.05.2017 17:50;16
15.05.2017 17:52;17
15.05.2017 17:55;16
15.05.2017 17:57;15
15.05.2017 17:59;15
15.05.2017 18:01;15
15.05.2017 18:03;15
15.05.2017 18:05;16
15.05.2017 18:07;17
15.05.2017 18:09;18
15.05.2017 18:11;18
15.05.2017 18:13;17
15.05.2017 18:15;17
15.05.2017 18:17;17
15.05.2017 18:19;17
15.05.2017 18:21;17
15.05.2017 18:23;16
15.05.2017 18:25;16
15.05.2017 18:28;18
15.05.2017 18:30;17
15.05.2017 18:32;16
15.05.2017 18:34;16
15.05.2017 18:36;17
15.05.2017 18:38;17
15.05.2017 18:40;17
15.05.2017 18:43;17
15.05.2017 18:44;16
15.05.2017 18:47;16
15.05.2017 18:49;16
15.05.2017 18:51;16
15.05.2017 18:53;15
15.05.2017 18:55;14
15.05.2017 18:58;16
15.05.2017 19:00;16
15.05.2017 19:02;18
15.05.2017 19:04;18
15.05.2017 19:06;17
15.05.2017 19:08;17
15.05.2017 19:11;17
15.05.2017 19:13;18
15.05.2017 19:15;18
15.05.2017 19:17;17
15.05.2017 19:19;17
15.05.2017 19:22;17
15.05.2017 19:24;16
15.05.2017 19:26;17
15.05.2017 19:29;15
15.05.2017 19:31;16
15.05.2017 19:33;17
15.05.2017 19:35;16
15.05.2017 19:38;16
15.05.2017 19:40;17
15.05.2017 19:42;18
15.05.2017 19:44;18
15.05.2017 19:46;18
15.05.2017 19:48;17
15.05.2017 19:50;17
15.05.2017 19:53;17
15.05.2017 19:55;16
15.05.2017 19:56;16
15.05.2017 19:58;16
15.05.2017 20:00;13
15.05.2017 20:02;13
15.05.2017 20:05;14
15.05.2017 20:07;14
15.05.2017 20:09;13
15.05.2017 20:10;12
15.05.2017 20:13;12
15.05.2017 20:15;13
15.05.2017 20:17;14
15.05.2017 20:19;15
15.05.2017 20:22;17
15.05.2017 20:23;17
15.05.2017 20:25;17
15.05.2017 20:27;18
15.05.2017 20:29;15
15.05.2017 20:32;18
15.05.2017 20:34;16
15.05.2017 20:36;17
15.05.2017 20:38;18
15.05.2017 20:40;17
15.05.2017 20:42;16
15.05.2017 20:44;16
15.05.2017 20:46;17
15.05.2017 20:48;16
15.05.2017 20:50;17
15.05.2017 20:52;16
15.05.2017 20:55;15
15.05.2017 20:57;16
15.05.2017 21:00;17
15.05.2017 21:02;17
15.05.2017 21:04;17
15.05.2017 21:06;17
15.05.2017 21:08;16
15.05.2017 21:11;15
15.05.2017 21:13;17
15.05.2017 21:15;17
15.05.2017 21:17;18
15.05.2017 21:19;18
15.05.2017 21:21;16
15.05.2017 21:23;16
15.05.2017 21:26;15
15.05.2017 21:28;16
15.05.2017 21:30;16
15.05.2017 21:32;16
15.05.2017 21:34;14
15.05.2017 21:37;16
15.05.2017 21:39;14
15.05.2017 21:42;17
15.05.2017 21:45;19
15.05.2017 21:47;19
15.05.2017 21:50;19
15.05.2017 21:52;19
15.05.2017 21:54;19
15.05.2017 21:56;19
15.05.2017 21:58;19
15.05.2017 22:00;19
15.05.2017 22:02;18
15.05.2017 22:04;17
15.05.2017 22:06;17
15.05.2017 22:08;17
15.05.2017 22:10;16
15.05.2017 22:12;16
15.05.2017 22:14;17
15.05.2017 22:16;19
15.05.2017 22:18;19
15.05.2017 22:20;18
15.05.2017 22:22;18
15.05.2017 22:24;18
15.05.2017 22:26;18
15.05.2017 22:28;17
15.05.2017 22:31;15
15.05.2017 22:33;17
15.05.2017 22:35;16
15.05.2017 22:37;16
15.05.2017 22:39;16
15.05.2017 22:41;14
15.05.2017 22:43;14
15.05.2017 22:45;15
15.05.2017 22:47;13
15.05.2017 22:50;18
15.05.2017 22:52;17
15.05.2017 22:54;17
15.05.2017 22:56;16
15.05.2017 22:58;17
15.05.2017 23:00;15
15.05.2017 23:02;14
15.05.2017 23:04;14
15.05.2017 23:06;13
15.05.2017 23:08;15
15.05.2017 23:10;15
15.05.2017 23:12;15
15.05.2017 23:14;16
15.05.2017 23:16;15
15.05.2017 23:18;13
15.05.2017 23:20;14
15.05.2017 23:22;14
15.05.2017 23:24;14
15.05.2017 23:26;15
15.05.2017 23:28;15
15.05.2017 23:30;15
15.05.2017 23:32;15
15.05.2017 23:34;15
15.05.2017 23:36;15
15.05.2017 23:38;14
15.05.2017 23:40;14
15.05.2017 23:42;14
15.05.2017 23:44;15
15.05.2017 23:46;15
15.05.2017 23:48;14
15.05.2017 23:50;13
15.05.2017 23:51;13
15.05.2017 23:54;14
15.05.2017 23:56;15
15.05.2017 23:58;15
16.05.2017 00:00;14
16.05.2017 00:02;15
16.05.2017 00:04;15
16.05.2017 00:06;13
16.05.2017 00:08;13
16.05.2017 00:10;15
16.05.2017 00:12;15
16.05.2017 00:14;16
16.05.2017 00:16;16
16.05.2017 00:18;16
16.05.2017 00:20;16
16.05.2017 00:22;16
16.05.2017 00:24;15
16.05.2017 00:26;16
16.05.2017 00:28;16
16.05.2017 00:30;16
16.05.2017 00:32;15
16.05.2017 00:34;14
16.05.2017 00:36;14
16.05.2017 00:38;12
16.05.2017 00:40;14
16.05.2017 00:43;14
16.05.2017 00:45;14
16.05.2017 00:48;15
16.05.2017 00:50;15
16.05.2017 00:52;15
16.05.2017 00:53;15
16.05.2017 00:55;15
16.05.2017 00:57;13
16.05.2017 00:59;14
16.05.2017 01:01;14
16.05.2017 01:03;15
16.05.2017 01:05;16
16.05.2017 01:08;16
16.05.2017 01:10;15
16.05.2017 01:12;15
16.05.2017 01:14;15
16.05.2017 01:16;14
16.05.2017 01:18;14
16.05.2017 01:20;15
16.05.2017 01:22;15
16.05.2017 01:24;15
16.05.2017 01:26;14
16.05.2017 01:28;15
16.05.2017 01:30;15
16.05.2017 01:32;15
16.05.2017 01:34;16
16.05.2017 01:36;16
16.05.2017 01:38;16
16.05.2017 01:40;15
16.05.2017 01:42;16
16.05.2017 01:44;15
16.05.2017 01:46;15
16.05.2017 01:48;15
16.05.2017 01:50;16
16.05.2017 01:52;17
16.05.2017 01:54;16
16.05.2017 01:56;16
16.05.2017 01:58;17
16.05.2017 02:00;15
16.05.2017 02:02;15
16.05.2017 02:04;14
16.05.2017 02:06;14
16.05.2017 02:08;14
16.05.2017 02:10;15
16.05.2017 02:12;15
16.05.2017 02:14;15
16.05.2017 02:16;15
16.05.2017 02:17;15
16.05.2017 02:19;14
16.05.2017 02:21;12
16.05.2017 02:23;13
16.05.2017 02:25;13
16.05.2017 02:27;13
16.05.2017 02:29;12
16.05.2017 02:31;13
16.05.2017 02:34;14
16.05.2017 02:36;15
16.05.2017 02:38;15
16.05.2017 02:40;14
16.05.2017 02:42;14
16.05.2017 02:44;17
16.05.2017 02:46;17
16.05.2017 02:48;17
16.05.2017 02:49;16
16.05.2017 02:51;15
16.05.2017 02:53;15
16.05.2017 02:55;15
16.05.2017 02:57;13
16.05.2017 02:59;14
16.05.2017 03:01;14
16.05.2017 03:02;13
16.05.2017 03:04;14
16.05.2017 03:07;14
16.05.2017 03:09;12
16.05.2017 03:11;13
16.05.2017 03:13;13
16.05.2017 03:15;14
16.05.2017 03:17;14
16.05.2017 03:19;13
16.05.2017 03:21;13
16.05.2017 03:23;14
16.05.2017 03:25;13
16.05.2017 03:27;13
16.05.2017 03:29;14
16.05.2017 03:31;14
16.05.2017 03:33;14
16.05.2017 03:35;13
16.05.2017 03:37;13
16.05.2017 03:39;13
16.05.2017 03:42;15
16.05.2017 03:44;15
16.05.2017 03:46;15
16.05.2017 03:48;15
16.05.2017 03:50;15
16.05.2017 03:52;15
16.05.2017 03:54;15
16.05.2017 03:56;16
16.05.2017 03:58;16
16.05.2017 04:00;17
16.05.2017 04:02;17
16.05.2017 04:04;15
16.05.2017 04:06;13
16.05.2017 04:08;12
16.05.2017 04:10;12
16.05.2017 04:13;14
16.05.2017 04:15;14
16.05.2017 04:17;14
16.05.2017 04:19;15
16.05.2017 04:21;15
16.05.2017 04:23;15
16.05.2017 04:25;15
16.05.2017 04:27;15
16.05.2017 04:29;14
16.05.2017 04:31;14
16.05.2017 04:33;14
16.05.2017 04:35;15
16.05.2017 04:37;14
16.05.2017 04:39;14
16.05.2017 04:41;14
16.05.2017 04:44;13
16.05.2017 04:46;13
16.05.2017 04:48;13
16.05.2017 04:50;13
16.05.2017 04:52;12
16.05.2017 04:54;14
16.05.2017 04:57;16
16.05.2017 04:59;17
16.05.2017 05:00;18
16.05.2017 05:03;16
16.05.2017 05:05;16
16.05.2017 05:07;16
16.05.2017 05:09;15
16.05.2017 05:10;15
16.05.2017 05:12;15
16.05.2017 05:15;16
16.05.2017 05:17;17
16.05.2017 05:22;22
16.05.2017 05:27;13
16.05.2017 05:32;10
16.05.2017 05:35;0
16.05.2017 05:38;0
16.05.2017 05:41;0
16.05.2017 05:44;1
16.05.2017 05:47;1
16.05.2017 05:50;1
16.05.2017 05:52;0
16.05.2017 05:55;0
16.05.2017 05:57;0
16.05.2017 06:00;0
16.05.2017 06:03;1
16.05.2017 06:05;0
16.05.2017 06:08;0
16.05.2017 06:10;0
16.05.2017 06:13;0
16.05.2017 06:15;0
16.05.2017 06:18;0
16.05.2017 06:21;0
16.05.2017 06:24;0
16.05.2017 06:27;0
16.05.2017 06:30;0
16.05.2017 06:32;0
16.05.2017 06:35;0
16.05.2017 06:38;0
16.05.2017 06:41;0
16.05.2017 06:44;0
16.05.2017 06:48;0
16.05.2017 06:50;0
16.05.2017 06:54;0
16.05.2017 06:57;0
16.05.2017 06:59;0
16.05.2017 07:02;0
16.05.2017 07:05;0
16.05.2017 07:08;0
16.05.2017 07:10;0
16.05.2017 07:14;0
16.05.2017 07:18;0
16.05.2017 07:21;0
16.05.2017 07:24;0
16.05.2017 07:27;0
16.05.2017 07:30;0
16.05.2017 07:33;0
16.05.2017 07:35;0
